%YAML 1.1
%TAG !u! tag:unity3d.com,2011:
--- !u!1001 &429356728908854685
PrefabInstance:
  m_ObjectHideFlags: 0
  serializedVersion: 2
  m_Modification:
    m_TransformParent: {fileID: 0}
    m_Modifications:
    - target: {fileID: -8679921383154817045, guid: c09acb5f009a9fb46b23dce923ced9fa, type: 3}
      propertyPath: m_RootOrder
      value: 0
      objectReference: {fileID: 0}
    - target: {fileID: -8679921383154817045, guid: c09acb5f009a9fb46b23dce923ced9fa, type: 3}
      propertyPath: m_LocalPosition.x
      value: -56.205738
      objectReference: {fileID: 0}
    - target: {fileID: -8679921383154817045, guid: c09acb5f009a9fb46b23dce923ced9fa, type: 3}
      propertyPath: m_LocalPosition.y
      value: 35.858837
      objectReference: {fileID: 0}
    - target: {fileID: -8679921383154817045, guid: c09acb5f009a9fb46b23dce923ced9fa, type: 3}
      propertyPath: m_LocalPosition.z
      value: -32.11906
      objectReference: {fileID: 0}
    - target: {fileID: -8679921383154817045, guid: c09acb5f009a9fb46b23dce923ced9fa, type: 3}
      propertyPath: m_LocalRotation.w
      value: 1
      objectReference: {fileID: 0}
    - target: {fileID: -8679921383154817045, guid: c09acb5f009a9fb46b23dce923ced9fa, type: 3}
      propertyPath: m_LocalRotation.x
      value: 0
      objectReference: {fileID: 0}
    - target: {fileID: -8679921383154817045, guid: c09acb5f009a9fb46b23dce923ced9fa, type: 3}
      propertyPath: m_LocalRotation.y
      value: -0
      objectReference: {fileID: 0}
    - target: {fileID: -8679921383154817045, guid: c09acb5f009a9fb46b23dce923ced9fa, type: 3}
      propertyPath: m_LocalRotation.z
      value: -0
      objectReference: {fileID: 0}
    - target: {fileID: -8679921383154817045, guid: c09acb5f009a9fb46b23dce923ced9fa, type: 3}
      propertyPath: m_LocalEulerAnglesHint.x
      value: 0
      objectReference: {fileID: 0}
    - target: {fileID: -8679921383154817045, guid: c09acb5f009a9fb46b23dce923ced9fa, type: 3}
      propertyPath: m_LocalEulerAnglesHint.y
      value: 0
      objectReference: {fileID: 0}
    - target: {fileID: -8679921383154817045, guid: c09acb5f009a9fb46b23dce923ced9fa, type: 3}
      propertyPath: m_LocalEulerAnglesHint.z
      value: 0
      objectReference: {fileID: 0}
    - target: {fileID: -7511558181221131132, guid: c09acb5f009a9fb46b23dce923ced9fa, type: 3}
      propertyPath: m_Materials.Array.data[0]
      value: 
      objectReference: {fileID: 2100000, guid: 9336c6e686fb8f6419b0d31b1d95dae5, type: 2}
    - target: {fileID: 919132149155446097, guid: c09acb5f009a9fb46b23dce923ced9fa, type: 3}
      propertyPath: m_Name
      value: Brick_3_Broken
      objectReference: {fileID: 0}
    m_RemovedComponents: []
  m_SourcePrefab: {fileID: 100100000, guid: c09acb5f009a9fb46b23dce923ced9fa, type: 3}
--- !u!1 &663164366962821324 stripped
GameObject:
  m_CorrespondingSourceObject: {fileID: 919132149155446097, guid: c09acb5f009a9fb46b23dce923ced9fa, type: 3}
  m_PrefabInstance: {fileID: 429356728908854685}
  m_PrefabAsset: {fileID: 0}
--- !u!65 &3532780612416343235
BoxCollider:
  m_ObjectHideFlags: 0
  m_CorrespondingSourceObject: {fileID: 0}
  m_PrefabInstance: {fileID: 0}
  m_PrefabAsset: {fileID: 0}
  m_GameObject: {fileID: 663164366962821324}
  m_Material: {fileID: 0}
  m_IsTrigger: 0
  m_Enabled: 1
  serializedVersion: 2
  m_Size: {x: 102.13815, y: 67.46178, z: 38.706123}
  m_Center: {x: 0, y: 0, z: 0}
