%YAML 1.1
%TAG !u! tag:unity3d.com,2011:
--- !u!1001 &2590685402228047473
PrefabInstance:
  m_ObjectHideFlags: 0
  serializedVersion: 2
  m_Modification:
    m_TransformParent: {fileID: 0}
    m_Modifications:
    - target: {fileID: -8679921383154817045, guid: 7fbaa3fc0280e3c4cbe9ff06416e5e85, type: 3}
      propertyPath: m_RootOrder
      value: 0
      objectReference: {fileID: 0}
    - target: {fileID: -8679921383154817045, guid: 7fbaa3fc0280e3c4cbe9ff06416e5e85, type: 3}
      propertyPath: m_LocalPosition.x
      value: -56.205738
      objectReference: {fileID: 0}
    - target: {fileID: -8679921383154817045, guid: 7fbaa3fc0280e3c4cbe9ff06416e5e85, type: 3}
      propertyPath: m_LocalPosition.y
      value: 35.858837
      objectReference: {fileID: 0}
    - target: {fileID: -8679921383154817045, guid: 7fbaa3fc0280e3c4cbe9ff06416e5e85, type: 3}
      propertyPath: m_LocalPosition.z
      value: -32.11906
      objectReference: {fileID: 0}
    - target: {fileID: -8679921383154817045, guid: 7fbaa3fc0280e3c4cbe9ff06416e5e85, type: 3}
      propertyPath: m_LocalRotation.w
      value: 1
      objectReference: {fileID: 0}
    - target: {fileID: -8679921383154817045, guid: 7fbaa3fc0280e3c4cbe9ff06416e5e85, type: 3}
      propertyPath: m_LocalRotation.x
      value: 0
      objectReference: {fileID: 0}
    - target: {fileID: -8679921383154817045, guid: 7fbaa3fc0280e3c4cbe9ff06416e5e85, type: 3}
      propertyPath: m_LocalRotation.y
      value: -0
      objectReference: {fileID: 0}
    - target: {fileID: -8679921383154817045, guid: 7fbaa3fc0280e3c4cbe9ff06416e5e85, type: 3}
      propertyPath: m_LocalRotation.z
      value: -0
      objectReference: {fileID: 0}
    - target: {fileID: -8679921383154817045, guid: 7fbaa3fc0280e3c4cbe9ff06416e5e85, type: 3}
      propertyPath: m_LocalEulerAnglesHint.x
      value: 0
      objectReference: {fileID: 0}
    - target: {fileID: -8679921383154817045, guid: 7fbaa3fc0280e3c4cbe9ff06416e5e85, type: 3}
      propertyPath: m_LocalEulerAnglesHint.y
      value: 0
      objectReference: {fileID: 0}
    - target: {fileID: -8679921383154817045, guid: 7fbaa3fc0280e3c4cbe9ff06416e5e85, type: 3}
      propertyPath: m_LocalEulerAnglesHint.z
      value: 0
      objectReference: {fileID: 0}
    - target: {fileID: -7511558181221131132, guid: 7fbaa3fc0280e3c4cbe9ff06416e5e85, type: 3}
      propertyPath: m_Materials.Array.data[0]
      value: 
      objectReference: {fileID: 2100000, guid: 9336c6e686fb8f6419b0d31b1d95dae5, type: 2}
    - target: {fileID: 919132149155446097, guid: 7fbaa3fc0280e3c4cbe9ff06416e5e85, type: 3}
      propertyPath: m_Name
      value: Limestone_Cube_2
      objectReference: {fileID: 0}
    - target: {fileID: 919132149155446097, guid: 7fbaa3fc0280e3c4cbe9ff06416e5e85, type: 3}
      propertyPath: m_TagString
      value: stone_terrain
      objectReference: {fileID: 0}
    - target: {fileID: 919132149155446097, guid: 7fbaa3fc0280e3c4cbe9ff06416e5e85, type: 3}
      propertyPath: m_StaticEditorFlags
      value: 4294967295
      objectReference: {fileID: 0}
    m_RemovedComponents: []
  m_SourcePrefab: {fileID: 100100000, guid: 7fbaa3fc0280e3c4cbe9ff06416e5e85, type: 3}
--- !u!1 &3400955990535471904 stripped
GameObject:
  m_CorrespondingSourceObject: {fileID: 919132149155446097, guid: 7fbaa3fc0280e3c4cbe9ff06416e5e85, type: 3}
  m_PrefabInstance: {fileID: 2590685402228047473}
  m_PrefabAsset: {fileID: 0}
--- !u!65 &5413592205670158634
BoxCollider:
  m_ObjectHideFlags: 0
  m_CorrespondingSourceObject: {fileID: 0}
  m_PrefabInstance: {fileID: 0}
  m_PrefabAsset: {fileID: 0}
  m_GameObject: {fileID: 3400955990535471904}
  m_Material: {fileID: 0}
  m_IsTrigger: 0
  m_Enabled: 1
  serializedVersion: 2
  m_Size: {x: 160, y: 160, z: 160}
  m_Center: {x: 0, y: 80, z: 0}
