%YAML 1.1
%TAG !u! tag:unity3d.com,2011:
--- !u!1001 &3023096328451734932
PrefabInstance:
  m_ObjectHideFlags: 0
  serializedVersion: 2
  m_Modification:
    m_TransformParent: {fileID: 0}
    m_Modifications:
    - target: {fileID: -8679921383154817045, guid: 8044f35122d79964b85a41bb060ec145, type: 3}
      propertyPath: m_RootOrder
      value: 0
      objectReference: {fileID: 0}
    - target: {fileID: -8679921383154817045, guid: 8044f35122d79964b85a41bb060ec145, type: 3}
      propertyPath: m_LocalScale.x
      value: 157.62297
      objectReference: {fileID: 0}
    - target: {fileID: -8679921383154817045, guid: 8044f35122d79964b85a41bb060ec145, type: 3}
      propertyPath: m_LocalScale.y
      value: 157.62297
      objectReference: {fileID: 0}
    - target: {fileID: -8679921383154817045, guid: 8044f35122d79964b85a41bb060ec145, type: 3}
      propertyPath: m_LocalScale.z
      value: 157.62297
      objectReference: {fileID: 0}
    - target: {fileID: -8679921383154817045, guid: 8044f35122d79964b85a41bb060ec145, type: 3}
      propertyPath: m_LocalPosition.x
      value: 35.21
      objectReference: {fileID: 0}
    - target: {fileID: -8679921383154817045, guid: 8044f35122d79964b85a41bb060ec145, type: 3}
      propertyPath: m_LocalPosition.y
      value: -0.0000009536743
      objectReference: {fileID: 0}
    - target: {fileID: -8679921383154817045, guid: 8044f35122d79964b85a41bb060ec145, type: 3}
      propertyPath: m_LocalPosition.z
      value: 5.14
      objectReference: {fileID: 0}
    - target: {fileID: -8679921383154817045, guid: 8044f35122d79964b85a41bb060ec145, type: 3}
      propertyPath: m_LocalRotation.w
      value: 0.974677
      objectReference: {fileID: 0}
    - target: {fileID: -8679921383154817045, guid: 8044f35122d79964b85a41bb060ec145, type: 3}
      propertyPath: m_LocalRotation.x
      value: -0
      objectReference: {fileID: 0}
    - target: {fileID: -8679921383154817045, guid: 8044f35122d79964b85a41bb060ec145, type: 3}
      propertyPath: m_LocalRotation.y
      value: -0.22361726
      objectReference: {fileID: 0}
    - target: {fileID: -8679921383154817045, guid: 8044f35122d79964b85a41bb060ec145, type: 3}
      propertyPath: m_LocalRotation.z
      value: -0
      objectReference: {fileID: 0}
    - target: {fileID: -8679921383154817045, guid: 8044f35122d79964b85a41bb060ec145, type: 3}
      propertyPath: m_LocalEulerAnglesHint.x
      value: 0
      objectReference: {fileID: 0}
    - target: {fileID: -8679921383154817045, guid: 8044f35122d79964b85a41bb060ec145, type: 3}
      propertyPath: m_LocalEulerAnglesHint.y
      value: -25.843
      objectReference: {fileID: 0}
    - target: {fileID: -8679921383154817045, guid: 8044f35122d79964b85a41bb060ec145, type: 3}
      propertyPath: m_LocalEulerAnglesHint.z
      value: 0
      objectReference: {fileID: 0}
    - target: {fileID: -7511558181221131132, guid: 8044f35122d79964b85a41bb060ec145, type: 3}
      propertyPath: m_CastShadows
      value: 1
      objectReference: {fileID: 0}
    - target: {fileID: -7511558181221131132, guid: 8044f35122d79964b85a41bb060ec145, type: 3}
      propertyPath: m_Materials.Array.data[0]
      value: 
      objectReference: {fileID: 2100000, guid: 5943b732894c2f24baa75addfcb76926, type: 2}
    - target: {fileID: 919132149155446097, guid: 8044f35122d79964b85a41bb060ec145, type: 3}
      propertyPath: m_Name
      value: wheat Variant
      objectReference: {fileID: 0}
    m_RemovedComponents: []
  m_SourcePrefab: {fileID: 100100000, guid: 8044f35122d79964b85a41bb060ec145, type: 3}
