%YAML 1.1
%TAG !u! tag:unity3d.com,2011:
--- !u!114 &-4398585172365089056
MonoBehaviour:
  m_ObjectHideFlags: 11
  m_CorrespondingSourceObject: {fileID: 0}
  m_PrefabInstance: {fileID: 0}
  m_PrefabAsset: {fileID: 0}
  m_GameObject: {fileID: 0}
  m_Enabled: 1
  m_EditorHideFlags: 0
  m_Script: {fileID: 11500000, guid: d0353a89b1f911e48b9e16bdc9f2e058, type: 3}
  m_Name: 
  m_EditorClassIdentifier: 
  version: 5
--- !u!21 &2100000
Material:
  serializedVersion: 6
  m_ObjectHideFlags: 0
  m_CorrespondingSourceObject: {fileID: 0}
  m_PrefabInstance: {fileID: 0}
  m_PrefabAsset: {fileID: 0}
  m_Name: White
  m_Shader: {fileID: -6465566751694194690, guid: e87631564b11f44df856e594cea2c530, type: 3}
  m_ShaderKeywords: 
  m_LightmapFlags: 4
  m_EnableInstancingVariants: 0
  m_DoubleSidedGI: 0
  m_CustomRenderQueue: -1
  stringTagMap: {}
  disabledShaderPasses: []
  m_SavedProperties:
    serializedVersion: 3
    m_TexEnvs:
    - Texture2D_16FBC7B9:
        m_Texture: {fileID: 0}
        m_Scale: {x: 1, y: 1}
        m_Offset: {x: 0, y: 0}
    - Texture2D_902A2DA5:
        m_Texture: {fileID: 0}
        m_Scale: {x: 1, y: 1}
        m_Offset: {x: 0, y: 0}
    - Texture2D_94AFEDCF:
        m_Texture: {fileID: 0}
        m_Scale: {x: 1, y: 1}
        m_Offset: {x: 0, y: 0}
    - Texture2D_E5287C6F:
        m_Texture: {fileID: 0}
        m_Scale: {x: 1, y: 1}
        m_Offset: {x: 0, y: 0}
    - _MainTex:
        m_Texture: {fileID: 0}
        m_Scale: {x: 1, y: 1}
        m_Offset: {x: 0, y: 0}
    - _NormalTex:
        m_Texture: {fileID: 0}
        m_Scale: {x: 1, y: 1}
        m_Offset: {x: 0, y: 0}
    - _OcclusionTex:
        m_Texture: {fileID: 0}
        m_Scale: {x: 1, y: 1}
        m_Offset: {x: 0, y: 0}
    - _SmoothnessTex:
        m_Texture: {fileID: 0}
        m_Scale: {x: 1, y: 1}
        m_Offset: {x: 0, y: 0}
    - _Texture2DAsset_908433992a7416839dbf1132a2f2cbff_Out_0:
        m_Texture: {fileID: 2800000, guid: bf91a9f94ae4348b09a32bb9c02a7b4d, type: 3}
        m_Scale: {x: 1, y: 1}
        m_Offset: {x: 0, y: 0}
    - _Texture2DAsset_AA6554C_Out_0:
        m_Texture: {fileID: 2800000, guid: bf91a9f94ae4348b09a32bb9c02a7b4d, type: 3}
        m_Scale: {x: 1, y: 1}
        m_Offset: {x: 0, y: 0}
    - _Texture2DAsset_E8C87502_Out_0:
        m_Texture: {fileID: 2800000, guid: bf91a9f94ae4348b09a32bb9c02a7b4d, type: 3}
        m_Scale: {x: 1, y: 1}
        m_Offset: {x: 0, y: 0}
    - unity_Lightmaps:
        m_Texture: {fileID: 0}
        m_Scale: {x: 1, y: 1}
        m_Offset: {x: 0, y: 0}
    - unity_LightmapsInd:
        m_Texture: {fileID: 0}
        m_Scale: {x: 1, y: 1}
        m_Offset: {x: 0, y: 0}
    - unity_ShadowMasks:
        m_Texture: {fileID: 0}
        m_Scale: {x: 1, y: 1}
        m_Offset: {x: 0, y: 0}
    m_Floats:
    - Boolean_F4B9FD79: 0
    - HARD_SHADING: 0
    - Vector1_1EF10E40: 1
    - Vector1_3C316D74: 2.3
    - Vector1_41FCC5C7: 0.5
    - Vector1_962926F1: 0.33
    - Vector1_A3ADAA29: 2
    - _BacklightAmount: 2.3
    - _DabsRotation: 15
    - _DabsTiling: 74
    - _HardShading: 0
    - _NormalMult: 0.05
    - _OcclusionMult: 1
    - _Smoothness: 0
    m_Colors:
    - Color_DF0B7C58: {r: 1, g: 1, b: 1, a: 0}
    - Vector2_45E88D1A: {r: 1, g: 1, b: 0, a: 0}
    - _Color: {r: 0.7924528, g: 0.7924528, b: 0.7924528, a: 0}
    - _Specular: {r: 0.7264151, g: 0.7264151, b: 0.7264151, a: 0}
    - _TextureTiling: {r: 3.23, g: 2.19, b: 0, a: 0}
  m_BuildTextureStacks: []
