%YAML 1.1
%TAG !u! tag:unity3d.com,2011:
--- !u!1001 &3688597325073086134
PrefabInstance:
  m_ObjectHideFlags: 0
  serializedVersion: 2
  m_Modification:
    m_TransformParent: {fileID: 0}
    m_Modifications:
    - target: {fileID: -8679921383154817045, guid: ce2c1e8575c379a42ab9057cabda15ee, type: 3}
      propertyPath: m_RootOrder
      value: 0
      objectReference: {fileID: 0}
    - target: {fileID: -8679921383154817045, guid: ce2c1e8575c379a42ab9057cabda15ee, type: 3}
      propertyPath: m_LocalScale.x
      value: 0.76578796
      objectReference: {fileID: 0}
    - target: {fileID: -8679921383154817045, guid: ce2c1e8575c379a42ab9057cabda15ee, type: 3}
      propertyPath: m_LocalScale.y
      value: 0.76578796
      objectReference: {fileID: 0}
    - target: {fileID: -8679921383154817045, guid: ce2c1e8575c379a42ab9057cabda15ee, type: 3}
      propertyPath: m_LocalScale.z
      value: 0.76578796
      objectReference: {fileID: 0}
    - target: {fileID: -8679921383154817045, guid: ce2c1e8575c379a42ab9057cabda15ee, type: 3}
      propertyPath: m_LocalPosition.x
      value: 12.803589
      objectReference: {fileID: 0}
    - target: {fileID: -8679921383154817045, guid: ce2c1e8575c379a42ab9057cabda15ee, type: 3}
      propertyPath: m_LocalPosition.y
      value: -0.09
      objectReference: {fileID: 0}
    - target: {fileID: -8679921383154817045, guid: ce2c1e8575c379a42ab9057cabda15ee, type: 3}
      propertyPath: m_LocalPosition.z
      value: 2.5229452
      objectReference: {fileID: 0}
    - target: {fileID: -8679921383154817045, guid: ce2c1e8575c379a42ab9057cabda15ee, type: 3}
      propertyPath: m_LocalRotation.w
      value: 1
      objectReference: {fileID: 0}
    - target: {fileID: -8679921383154817045, guid: ce2c1e8575c379a42ab9057cabda15ee, type: 3}
      propertyPath: m_LocalRotation.x
      value: 0
      objectReference: {fileID: 0}
    - target: {fileID: -8679921383154817045, guid: ce2c1e8575c379a42ab9057cabda15ee, type: 3}
      propertyPath: m_LocalRotation.y
      value: -0
      objectReference: {fileID: 0}
    - target: {fileID: -8679921383154817045, guid: ce2c1e8575c379a42ab9057cabda15ee, type: 3}
      propertyPath: m_LocalRotation.z
      value: -0
      objectReference: {fileID: 0}
    - target: {fileID: -8679921383154817045, guid: ce2c1e8575c379a42ab9057cabda15ee, type: 3}
      propertyPath: m_LocalEulerAnglesHint.x
      value: 0
      objectReference: {fileID: 0}
    - target: {fileID: -8679921383154817045, guid: ce2c1e8575c379a42ab9057cabda15ee, type: 3}
      propertyPath: m_LocalEulerAnglesHint.y
      value: 0
      objectReference: {fileID: 0}
    - target: {fileID: -8679921383154817045, guid: ce2c1e8575c379a42ab9057cabda15ee, type: 3}
      propertyPath: m_LocalEulerAnglesHint.z
      value: 0
      objectReference: {fileID: 0}
    - target: {fileID: -7511558181221131132, guid: ce2c1e8575c379a42ab9057cabda15ee, type: 3}
      propertyPath: m_Materials.Array.data[0]
      value: 
      objectReference: {fileID: 2100000, guid: 5e0d9d3d9e2c889419aed01144fd0e04, type: 2}
    - target: {fileID: 919132149155446097, guid: ce2c1e8575c379a42ab9057cabda15ee, type: 3}
      propertyPath: m_Name
      value: Bush_Flat
      objectReference: {fileID: 0}
    m_RemovedComponents: []
  m_SourcePrefab: {fileID: 100100000, guid: ce2c1e8575c379a42ab9057cabda15ee, type: 3}
--- !u!1 &4607726026441804775 stripped
GameObject:
  m_CorrespondingSourceObject: {fileID: 919132149155446097, guid: ce2c1e8575c379a42ab9057cabda15ee, type: 3}
  m_PrefabInstance: {fileID: 3688597325073086134}
  m_PrefabAsset: {fileID: 0}
--- !u!136 &4100699089862121389
CapsuleCollider:
  m_ObjectHideFlags: 0
  m_CorrespondingSourceObject: {fileID: 0}
  m_PrefabInstance: {fileID: 0}
  m_PrefabAsset: {fileID: 0}
  m_GameObject: {fileID: 4607726026441804775}
  m_Material: {fileID: 0}
  m_IsTrigger: 0
  m_Enabled: 1
  m_Radius: 1.2553651
  m_Height: 2.8317811
  m_Direction: 2
  m_Center: {x: 0.08013052, y: -0.10452444, z: 0.05962146}
