%YAML 1.1
%TAG !u! tag:unity3d.com,2011:
--- !u!1001 &1584705159692389513
PrefabInstance:
  m_ObjectHideFlags: 0
  serializedVersion: 2
  m_Modification:
    m_TransformParent: {fileID: 0}
    m_Modifications:
    - target: {fileID: -8679921383154817045, guid: 663ea05388d5ba247a2a4c1ea63adaa0, type: 3}
      propertyPath: m_RootOrder
      value: 0
      objectReference: {fileID: 0}
    - target: {fileID: -8679921383154817045, guid: 663ea05388d5ba247a2a4c1ea63adaa0, type: 3}
      propertyPath: m_LocalPosition.x
      value: 23.76809
      objectReference: {fileID: 0}
    - target: {fileID: -8679921383154817045, guid: 663ea05388d5ba247a2a4c1ea63adaa0, type: 3}
      propertyPath: m_LocalPosition.y
      value: 1.1856236
      objectReference: {fileID: 0}
    - target: {fileID: -8679921383154817045, guid: 663ea05388d5ba247a2a4c1ea63adaa0, type: 3}
      propertyPath: m_LocalPosition.z
      value: 34.308437
      objectReference: {fileID: 0}
    - target: {fileID: -8679921383154817045, guid: 663ea05388d5ba247a2a4c1ea63adaa0, type: 3}
      propertyPath: m_LocalRotation.w
      value: 1
      objectReference: {fileID: 0}
    - target: {fileID: -8679921383154817045, guid: 663ea05388d5ba247a2a4c1ea63adaa0, type: 3}
      propertyPath: m_LocalRotation.x
      value: 0
      objectReference: {fileID: 0}
    - target: {fileID: -8679921383154817045, guid: 663ea05388d5ba247a2a4c1ea63adaa0, type: 3}
      propertyPath: m_LocalRotation.y
      value: -0
      objectReference: {fileID: 0}
    - target: {fileID: -8679921383154817045, guid: 663ea05388d5ba247a2a4c1ea63adaa0, type: 3}
      propertyPath: m_LocalRotation.z
      value: -0
      objectReference: {fileID: 0}
    - target: {fileID: -8679921383154817045, guid: 663ea05388d5ba247a2a4c1ea63adaa0, type: 3}
      propertyPath: m_LocalEulerAnglesHint.x
      value: 0
      objectReference: {fileID: 0}
    - target: {fileID: -8679921383154817045, guid: 663ea05388d5ba247a2a4c1ea63adaa0, type: 3}
      propertyPath: m_LocalEulerAnglesHint.y
      value: 0
      objectReference: {fileID: 0}
    - target: {fileID: -8679921383154817045, guid: 663ea05388d5ba247a2a4c1ea63adaa0, type: 3}
      propertyPath: m_LocalEulerAnglesHint.z
      value: 0
      objectReference: {fileID: 0}
    - target: {fileID: 919132149155446097, guid: 663ea05388d5ba247a2a4c1ea63adaa0, type: 3}
      propertyPath: m_Name
      value: FoliagePalm
      objectReference: {fileID: 0}
    - target: {fileID: 3328855810980203625, guid: 663ea05388d5ba247a2a4c1ea63adaa0, type: 3}
      propertyPath: m_StaticEditorFlags
      value: 0
      objectReference: {fileID: 0}
    - target: {fileID: 3682172905001260252, guid: 663ea05388d5ba247a2a4c1ea63adaa0, type: 3}
      propertyPath: m_Materials.Array.data[0]
      value: 
      objectReference: {fileID: 2100000, guid: ba1d76ca9e93b2b43bb4d3c5b365be99, type: 2}
    - target: {fileID: 8290700844141156220, guid: 663ea05388d5ba247a2a4c1ea63adaa0, type: 3}
      propertyPath: m_Materials.Array.data[0]
      value: 
      objectReference: {fileID: 2100000, guid: 1495251eb0bc03740895be081197a6b3, type: 2}
    m_RemovedComponents: []
  m_SourcePrefab: {fileID: 100100000, guid: 663ea05388d5ba247a2a4c1ea63adaa0, type: 3}
--- !u!1 &528852323128968422 stripped
GameObject:
  m_CorrespondingSourceObject: {fileID: 1344567002480478319, guid: 663ea05388d5ba247a2a4c1ea63adaa0, type: 3}
  m_PrefabInstance: {fileID: 1584705159692389513}
  m_PrefabAsset: {fileID: 0}
--- !u!136 &1453608636308863452
CapsuleCollider:
  m_ObjectHideFlags: 0
  m_CorrespondingSourceObject: {fileID: 0}
  m_PrefabInstance: {fileID: 0}
  m_PrefabAsset: {fileID: 0}
  m_GameObject: {fileID: 528852323128968422}
  m_Material: {fileID: 0}
  m_IsTrigger: 0
  m_Enabled: 1
  m_Radius: 0.9432173
  m_Height: 6.771454
  m_Direction: 1
  m_Center: {x: -0.6585016, y: 2.4938617, z: 0.01873523}
--- !u!136 &8800533430093299012
CapsuleCollider:
  m_ObjectHideFlags: 0
  m_CorrespondingSourceObject: {fileID: 0}
  m_PrefabInstance: {fileID: 0}
  m_PrefabAsset: {fileID: 0}
  m_GameObject: {fileID: 528852323128968422}
  m_Material: {fileID: 0}
  m_IsTrigger: 0
  m_Enabled: 1
  m_Radius: 0.8372631
  m_Height: 7.8764973
  m_Direction: 1
  m_Center: {x: -0.34517097, y: 9.191983, z: 0.01873529}
