%YAML 1.1
%TAG !u! tag:unity3d.com,2011:
--- !u!1001 &2172131199812659820
PrefabInstance:
  m_ObjectHideFlags: 0
  serializedVersion: 2
  m_Modification:
    m_TransformParent: {fileID: 0}
    m_Modifications:
    - target: {fileID: -4216859302048453862, guid: 9a6fbd5a28bbcb04d99b7fbfa0c67e10, type: 3}
      propertyPath: m_RootOrder
      value: 0
      objectReference: {fileID: 0}
    - target: {fileID: -4216859302048453862, guid: 9a6fbd5a28bbcb04d99b7fbfa0c67e10, type: 3}
      propertyPath: m_LocalPosition.x
      value: 20.949463
      objectReference: {fileID: 0}
    - target: {fileID: -4216859302048453862, guid: 9a6fbd5a28bbcb04d99b7fbfa0c67e10, type: 3}
      propertyPath: m_LocalPosition.y
      value: 22.02642
      objectReference: {fileID: 0}
    - target: {fileID: -4216859302048453862, guid: 9a6fbd5a28bbcb04d99b7fbfa0c67e10, type: 3}
      propertyPath: m_LocalPosition.z
      value: 9.125238
      objectReference: {fileID: 0}
    - target: {fileID: -4216859302048453862, guid: 9a6fbd5a28bbcb04d99b7fbfa0c67e10, type: 3}
      propertyPath: m_LocalRotation.w
      value: 1
      objectReference: {fileID: 0}
    - target: {fileID: -4216859302048453862, guid: 9a6fbd5a28bbcb04d99b7fbfa0c67e10, type: 3}
      propertyPath: m_LocalRotation.x
      value: 0
      objectReference: {fileID: 0}
    - target: {fileID: -4216859302048453862, guid: 9a6fbd5a28bbcb04d99b7fbfa0c67e10, type: 3}
      propertyPath: m_LocalRotation.y
      value: -0
      objectReference: {fileID: 0}
    - target: {fileID: -4216859302048453862, guid: 9a6fbd5a28bbcb04d99b7fbfa0c67e10, type: 3}
      propertyPath: m_LocalRotation.z
      value: -0
      objectReference: {fileID: 0}
    - target: {fileID: -4216859302048453862, guid: 9a6fbd5a28bbcb04d99b7fbfa0c67e10, type: 3}
      propertyPath: m_LocalEulerAnglesHint.x
      value: 0
      objectReference: {fileID: 0}
    - target: {fileID: -4216859302048453862, guid: 9a6fbd5a28bbcb04d99b7fbfa0c67e10, type: 3}
      propertyPath: m_LocalEulerAnglesHint.y
      value: 0
      objectReference: {fileID: 0}
    - target: {fileID: -4216859302048453862, guid: 9a6fbd5a28bbcb04d99b7fbfa0c67e10, type: 3}
      propertyPath: m_LocalEulerAnglesHint.z
      value: 0
      objectReference: {fileID: 0}
    - target: {fileID: -1504981713932161579, guid: 9a6fbd5a28bbcb04d99b7fbfa0c67e10, type: 3}
      propertyPath: m_Materials.Array.data[0]
      value: 
      objectReference: {fileID: 2100000, guid: a679f0591def40841a6a639a5d693772, type: 2}
    - target: {fileID: -1504981713932161579, guid: 9a6fbd5a28bbcb04d99b7fbfa0c67e10, type: 3}
      propertyPath: m_Materials.Array.data[1]
      value: 
      objectReference: {fileID: 2100000, guid: 0d9e69e16ee0d8740a95b9401f9245a1, type: 2}
    - target: {fileID: -927199367670048503, guid: 9a6fbd5a28bbcb04d99b7fbfa0c67e10, type: 3}
      propertyPath: m_Name
      value: Key_Hourglass_Mount Variant 1
      objectReference: {fileID: 0}
    m_RemovedComponents: []
  m_SourcePrefab: {fileID: 100100000, guid: 9a6fbd5a28bbcb04d99b7fbfa0c67e10, type: 3}
