%YAML 1.1
%TAG !u! tag:unity3d.com,2011:
--- !u!114 &-3691204384282057558
MonoBehaviour:
  m_ObjectHideFlags: 11
  m_CorrespondingSourceObject: {fileID: 0}
  m_PrefabInstance: {fileID: 0}
  m_PrefabAsset: {fileID: 0}
  m_GameObject: {fileID: 0}
  m_Enabled: 1
  m_EditorHideFlags: 0
  m_Script: {fileID: 11500000, guid: d0353a89b1f911e48b9e16bdc9f2e058, type: 3}
  m_Name: 
  m_EditorClassIdentifier: 
  version: 4
--- !u!21 &2100000
Material:
  serializedVersion: 6
  m_ObjectHideFlags: 0
  m_CorrespondingSourceObject: {fileID: 0}
  m_PrefabInstance: {fileID: 0}
  m_PrefabAsset: {fileID: 0}
  m_Name: dryGrass
  m_Shader: {fileID: -6465566751694194690, guid: 46963998ce5ff174388c136acd560481, type: 3}
  m_ShaderKeywords: _ALPHATEST_ON
  m_LightmapFlags: 4
  m_EnableInstancingVariants: 0
  m_DoubleSidedGI: 1
  m_CustomRenderQueue: -1
  stringTagMap: {}
  disabledShaderPasses: []
  m_SavedProperties:
    serializedVersion: 3
    m_TexEnvs:
    - Texture2D_88846d4ca4884b06bc19b9ea68b00dbd:
        m_Texture: {fileID: 2800000, guid: adcd352b517016d4796a76d98b9be671, type: 3}
        m_Scale: {x: 1, y: 1}
        m_Offset: {x: 0, y: 0}
    - Texture2D_9731b131dee54de28f4c9a8a32121ae8:
        m_Texture: {fileID: 0}
        m_Scale: {x: 1, y: 1}
        m_Offset: {x: 0, y: 0}
    - Texture2D_c83bb4be80d94114b1316dc2160c278e:
        m_Texture: {fileID: 2800000, guid: 80e80dfcc48b21b46a838154e2c1e2a3, type: 3}
        m_Scale: {x: 1, y: 1}
        m_Offset: {x: 0, y: 0}
    - Texture2D_f24754cf68e74d78ae134267bda93ac1:
        m_Texture: {fileID: 2800000, guid: c514975c8cb122c46ad7fec7d985d305, type: 3}
        m_Scale: {x: 1, y: 1}
        m_Offset: {x: 0, y: 0}
    - _BASE_COLOR_MAP:
        m_Texture: {fileID: 0}
        m_Scale: {x: 1, y: 1}
        m_Offset: {x: 0, y: 0}
    - _BaseMap:
        m_Texture: {fileID: 2800000, guid: 80e80dfcc48b21b46a838154e2c1e2a3, type: 3}
        m_Scale: {x: 1, y: 1}
        m_Offset: {x: 0, y: 0}
    - _BumpMap:
        m_Texture: {fileID: 0}
        m_Scale: {x: 1, y: 1}
        m_Offset: {x: 0, y: 0}
    - _DetailAlbedoMap:
        m_Texture: {fileID: 0}
        m_Scale: {x: 1, y: 1}
        m_Offset: {x: 0, y: 0}
    - _DetailMask:
        m_Texture: {fileID: 0}
        m_Scale: {x: 1, y: 1}
        m_Offset: {x: 0, y: 0}
    - _DetailNormalMap:
        m_Texture: {fileID: 0}
        m_Scale: {x: 1, y: 1}
        m_Offset: {x: 0, y: 0}
    - _EMISSION_COLOR_MAP:
        m_Texture: {fileID: 0}
        m_Scale: {x: 1, y: 1}
        m_Offset: {x: 0, y: 0}
    - _EmissionMap:
        m_Texture: {fileID: 0}
        m_Scale: {x: 1, y: 1}
        m_Offset: {x: 0, y: 0}
    - _METALNESS_MAP:
        m_Texture: {fileID: 0}
        m_Scale: {x: 1, y: 1}
        m_Offset: {x: 0, y: 0}
    - _MainTex:
        m_Texture: {fileID: 2800000, guid: 80e80dfcc48b21b46a838154e2c1e2a3, type: 3}
        m_Scale: {x: 1, y: 1}
        m_Offset: {x: 0, y: 0}
    - _MetallicGlossMap:
        m_Texture: {fileID: 0}
        m_Scale: {x: 1, y: 1}
        m_Offset: {x: 0, y: 0}
    - _NORMAL_MAP:
        m_Texture: {fileID: 0}
        m_Scale: {x: 1, y: 1}
        m_Offset: {x: 0, y: 0}
    - _OPACITY_MAP:
        m_Texture: {fileID: 0}
        m_Scale: {x: 1, y: 1}
        m_Offset: {x: 0, y: 0}
    - _OcclusionMap:
        m_Texture: {fileID: 0}
        m_Scale: {x: 1, y: 1}
        m_Offset: {x: 0, y: 0}
    - _ParallaxMap:
        m_Texture: {fileID: 0}
        m_Scale: {x: 1, y: 1}
        m_Offset: {x: 0, y: 0}
    - _SPECULAR_COLOR_MAP:
        m_Texture: {fileID: 0}
        m_Scale: {x: 1, y: 1}
        m_Offset: {x: 0, y: 0}
    - _SPECULAR_IOR_MAP:
        m_Texture: {fileID: 0}
        m_Scale: {x: 1, y: 1}
        m_Offset: {x: 0, y: 0}
    - _SPECULAR_ROUGHNESS_MAP:
        m_Texture: {fileID: 0}
        m_Scale: {x: 1, y: 1}
        m_Offset: {x: 0, y: 0}
    - _SpecGlossMap:
        m_Texture: {fileID: 0}
        m_Scale: {x: 1, y: 1}
        m_Offset: {x: 0, y: 0}
    - unity_Lightmaps:
        m_Texture: {fileID: 0}
        m_Scale: {x: 1, y: 1}
        m_Offset: {x: 0, y: 0}
    - unity_LightmapsInd:
        m_Texture: {fileID: 0}
        m_Scale: {x: 1, y: 1}
        m_Offset: {x: 0, y: 0}
    - unity_ShadowMasks:
        m_Texture: {fileID: 0}
        m_Scale: {x: 1, y: 1}
        m_Offset: {x: 0, y: 0}
    m_Floats:
    - Boolean_27433c40733442ab879825b90315ebf0: 0
    - Boolean_6dc2f0b84a0045549b43fc70b8403285: 0
    - Boolean_74a48ec5b2b74899be628eec9e5dc4df: 1
    - Boolean_a9fae95d90df427e9c91fcdf2d54b451: 1
    - Boolean_ad9a4d66b02a4136b1996c935bf4050c: 0
    - Boolean_d6d7ec3beb184a4f96e3874f2d0fd3c4: 1
    - Boolean_d930d8d0bb7b44f78825f88b7add51e5: 0
    - Boolean_f002fad143744498ac40ade9a3aeb884: 1
    - Vector1_09b0898e15ec414284cb9a0b162b82a0: 0.01
    - Vector1_215fd65c9435435d877184a4f13122f2: 0.42
    - Vector1_31d2057d628749619b50b84177427af9: 0.4
    - Vector1_347e681d6bfa49299b25de5e7f40bd77: 0
    - Vector1_425031a565284237adb65f9b5f21b32c: 0
    - Vector1_49fb1244bd994bff90450ff9186c2574: 0.5
    - Vector1_5e6a952dd9004e76b49fd684b3c234df: 4.1
    - Vector1_6b5cb54421964cfb9bac9aa5f40d0076: 0.32
    - Vector1_74c94528a78a4c15963005f5dafc134d: 1.05
    - Vector1_80ab7b041d89486e8e433367a99a9936: 0
    - Vector1_8ffffff762984d9ab88005a0de12e5d8: 0.3
    - Vector1_9c32ed1cd23143d99796c3751d25d3d0: 0.46
    - Vector1_9c4f777bcd784dc48f886b52c390e5e4: 0.42
    - Vector1_a6d37c8456d147f884d5bf1ede6a1f2a: 1
    - Vector1_e5c97c31857c4aac93aef1467d4fb64b: 0.6
    - Vector1_f5266f26ba8a4e849ac77eb30027c64e: 1.7
    - _AlphaClip: 1
    - _Blend: 0
    - _BumpScale: 1
    - _ClearCoatMask: 0
    - _ClearCoatSmoothness: 0
    - _Cull: 0
    - _Cutoff: 0.04
    - _DetailAlbedoMapScale: 1
    - _DetailNormalMapScale: 1
    - _DstBlend: 0
    - _EnvironmentReflections: 1
    - _GlossMapScale: 0
    - _Glossiness: 0
    - _GlossyReflections: 0
    - _METALNESS: 0
    - _Metallic: 0
    - _OPACITY: 1
    - _OcclusionStrength: 1
    - _Parallax: 0.005
    - _QueueOffset: 0
    - _ReceiveShadows: 1
    - _SPECULAR_IOR: 1.5
    - _SPECULAR_ROUGHNESS: 0
    - _Smoothness: 0
    - _SmoothnessTextureChannel: 0
    - _SpecularHighlights: 1
    - _SrcBlend: 1
    - _Surface: 0
    - _WorkflowMode: 1
    - _ZWrite: 1
    m_Colors:
    - Color_26c70d3d7235451fa723d59b51a9efee: {r: 0.3679245, g: 0.23535565, b: 0.10898895, a: 0}
    - Color_27c3e7e669c545b682d1d3243fbf8fc7: {r: 0.3301887, g: 0.23926143, b: 0.0760057, a: 0}
    - Color_3a4a7d326b544ea890cd70790e1dc50f: {r: 0.9245283, g: 0.67627364, b: 0.33492342, a: 0}
    - Color_9f4846f4db0a4174afb64dc11257b2e0: {r: 0.8113208, g: 0.6539379, b: 0.15614095, a: 0}
    - Vector2_0933b95a5a804871adcd784ab64f59d9: {r: 0, g: 0, b: 0, a: 0}
    - Vector2_418fc6ab8c3c44fcb76e7563b3be3087: {r: 0, g: 0, b: 0, a: 0}
    - Vector2_708d10f7c94e4c2caca3e59ac2c4c8d2: {r: 0.13, g: 0.29, b: 0, a: 0}
    - _BASE_COLOR: {r: 0, g: 0, b: 0, a: 0}
    - _BaseColor: {r: 1, g: 1, b: 1, a: 1}
    - _Color: {r: 1, g: 1, b: 1, a: 1}
    - _EMISSION_COLOR: {r: 0, g: 0, b: 0, a: 0}
    - _EmissionColor: {r: 0, g: 0, b: 0, a: 1}
    - _SPECULAR_COLOR: {r: 1, g: 1, b: 1, a: 0}
    - _SpecColor: {r: 0.19999996, g: 0.19999996, b: 0.19999996, a: 1}
  m_BuildTextureStacks: []
