%YAML 1.1
%TAG !u! tag:unity3d.com,2011:
--- !u!1001 &7797278171390249614
PrefabInstance:
  m_ObjectHideFlags: 0
  serializedVersion: 2
  m_Modification:
    m_TransformParent: {fileID: 0}
    m_Modifications:
    - target: {fileID: -8679921383154817045, guid: 6559aed0b5091304293d9a7d08b5bd08, type: 3}
      propertyPath: m_RootOrder
      value: 0
      objectReference: {fileID: 0}
    - target: {fileID: -8679921383154817045, guid: 6559aed0b5091304293d9a7d08b5bd08, type: 3}
      propertyPath: m_LocalPosition.x
      value: 0
      objectReference: {fileID: 0}
    - target: {fileID: -8679921383154817045, guid: 6559aed0b5091304293d9a7d08b5bd08, type: 3}
      propertyPath: m_LocalPosition.y
      value: 0
      objectReference: {fileID: 0}
    - target: {fileID: -8679921383154817045, guid: 6559aed0b5091304293d9a7d08b5bd08, type: 3}
      propertyPath: m_LocalPosition.z
      value: 0
      objectReference: {fileID: 0}
    - target: {fileID: -8679921383154817045, guid: 6559aed0b5091304293d9a7d08b5bd08, type: 3}
      propertyPath: m_LocalRotation.w
      value: 1
      objectReference: {fileID: 0}
    - target: {fileID: -8679921383154817045, guid: 6559aed0b5091304293d9a7d08b5bd08, type: 3}
      propertyPath: m_LocalRotation.x
      value: 0
      objectReference: {fileID: 0}
    - target: {fileID: -8679921383154817045, guid: 6559aed0b5091304293d9a7d08b5bd08, type: 3}
      propertyPath: m_LocalRotation.y
      value: 0
      objectReference: {fileID: 0}
    - target: {fileID: -8679921383154817045, guid: 6559aed0b5091304293d9a7d08b5bd08, type: 3}
      propertyPath: m_LocalRotation.z
      value: 0
      objectReference: {fileID: 0}
    - target: {fileID: -8679921383154817045, guid: 6559aed0b5091304293d9a7d08b5bd08, type: 3}
      propertyPath: m_LocalEulerAnglesHint.x
      value: 0
      objectReference: {fileID: 0}
    - target: {fileID: -8679921383154817045, guid: 6559aed0b5091304293d9a7d08b5bd08, type: 3}
      propertyPath: m_LocalEulerAnglesHint.y
      value: 0
      objectReference: {fileID: 0}
    - target: {fileID: -8679921383154817045, guid: 6559aed0b5091304293d9a7d08b5bd08, type: 3}
      propertyPath: m_LocalEulerAnglesHint.z
      value: 0
      objectReference: {fileID: 0}
    - target: {fileID: -7511558181221131132, guid: 6559aed0b5091304293d9a7d08b5bd08, type: 3}
      propertyPath: m_Materials.Array.data[0]
      value: 
      objectReference: {fileID: 2100000, guid: 0d9e69e16ee0d8740a95b9401f9245a1, type: 2}
    - target: {fileID: -7511558181221131132, guid: 6559aed0b5091304293d9a7d08b5bd08, type: 3}
      propertyPath: m_Materials.Array.data[1]
      value: 
      objectReference: {fileID: 2100000, guid: 193706c8c260ea1459e2acd998a4a5e0, type: 2}
    - target: {fileID: 919132149155446097, guid: 6559aed0b5091304293d9a7d08b5bd08, type: 3}
      propertyPath: m_Name
      value: Ladder
      objectReference: {fileID: 0}
    m_RemovedComponents: []
  m_SourcePrefab: {fileID: 100100000, guid: 6559aed0b5091304293d9a7d08b5bd08, type: 3}
--- !u!1 &6986234204293085151 stripped
GameObject:
  m_CorrespondingSourceObject: {fileID: 919132149155446097, guid: 6559aed0b5091304293d9a7d08b5bd08, type: 3}
  m_PrefabInstance: {fileID: 7797278171390249614}
  m_PrefabAsset: {fileID: 0}
--- !u!65 &2812178244805946939
BoxCollider:
  m_ObjectHideFlags: 0
  m_CorrespondingSourceObject: {fileID: 0}
  m_PrefabInstance: {fileID: 0}
  m_PrefabAsset: {fileID: 0}
  m_GameObject: {fileID: 6986234204293085151}
  m_Material: {fileID: 0}
  m_IsTrigger: 0
  m_Enabled: 1
  serializedVersion: 2
  m_Size: {x: 0.72262096, y: 1.6999999, z: 0.12896375}
  m_Center: {x: 0, y: 0.8440687, z: 0}
