%YAML 1.1
%TAG !u! tag:unity3d.com,2011:
--- !u!21 &2100000
Material:
  serializedVersion: 6
  m_ObjectHideFlags: 0
  m_CorrespondingSourceObject: {fileID: 0}
  m_PrefabInstance: {fileID: 0}
  m_PrefabAsset: {fileID: 0}
  m_Name: PalmStem
  m_Shader: {fileID: -6465566751694194690, guid: c7f5a5c6c6c76d24a8c8a4cd61d299bb, type: 3}
  m_ShaderKeywords: _OCCLUSIONMAP
  m_LightmapFlags: 4
  m_EnableInstancingVariants: 0
  m_DoubleSidedGI: 0
  m_CustomRenderQueue: -1
  stringTagMap: {}
  disabledShaderPasses: []
  m_SavedProperties:
    serializedVersion: 3
    m_TexEnvs:
    - Texture2D_299a1035e3e649efb302bcc54664304e:
        m_Texture: {fileID: 2800000, guid: a17bed5506783db4482b5b03aaa4aff2, type: 3}
        m_Scale: {x: 1, y: 1}
        m_Offset: {x: 0, y: 0}
    - Texture2D_58a5f39341a7488c97176fa278863c31:
        m_Texture: {fileID: 2800000, guid: 0084f129b1ee2e24ca380135bc480c78, type: 3}
        m_Scale: {x: 1, y: 1}
        m_Offset: {x: 0, y: 0}
    - Texture2D_88846d4ca4884b06bc19b9ea68b00dbd:
        m_Texture: {fileID: 2800000, guid: a17bed5506783db4482b5b03aaa4aff2, type: 3}
        m_Scale: {x: 1, y: 1}
        m_Offset: {x: 0, y: 0}
    - Texture2D_9731b131dee54de28f4c9a8a32121ae8:
        m_Texture: {fileID: 2800000, guid: fc77172fa205a9f459f337b30a0b7e34, type: 3}
        m_Scale: {x: 1, y: 1}
        m_Offset: {x: 0, y: 0}
    - Texture2D_ef7b7de0ec574f10bcee32e4192da685:
        m_Texture: {fileID: 2800000, guid: e1e906935a5a39f4e983cc15df53934f, type: 3}
        m_Scale: {x: 1, y: 1}
        m_Offset: {x: 0, y: 0}
    - _BaseMap:
        m_Texture: {fileID: 2800000, guid: 461b9955e57506743919abb09f86cc1c, type: 3}
        m_Scale: {x: 1, y: 1}
        m_Offset: {x: 0, y: 0}
    - _BumpMap:
        m_Texture: {fileID: 0}
        m_Scale: {x: 1, y: 1}
        m_Offset: {x: 0, y: 0}
    - _DetailAlbedoMap:
        m_Texture: {fileID: 0}
        m_Scale: {x: 1, y: 1}
        m_Offset: {x: 0, y: 0}
    - _DetailMask:
        m_Texture: {fileID: 0}
        m_Scale: {x: 1, y: 1}
        m_Offset: {x: 0, y: 0}
    - _DetailNormalMap:
        m_Texture: {fileID: 0}
        m_Scale: {x: 1, y: 1}
        m_Offset: {x: 0, y: 0}
    - _EmissionMap:
        m_Texture: {fileID: 0}
        m_Scale: {x: 1, y: 1}
        m_Offset: {x: 0, y: 0}
    - _MainTex:
        m_Texture: {fileID: 2800000, guid: 461b9955e57506743919abb09f86cc1c, type: 3}
        m_Scale: {x: 1, y: 1}
        m_Offset: {x: 0, y: 0}
    - _MetallicGlossMap:
        m_Texture: {fileID: 0}
        m_Scale: {x: 1, y: 1}
        m_Offset: {x: 0, y: 0}
    - _OcclusionMap:
        m_Texture: {fileID: 2800000, guid: 0084f129b1ee2e24ca380135bc480c78, type: 3}
        m_Scale: {x: 1, y: 1}
        m_Offset: {x: 0, y: 0}
    - _ParallaxMap:
        m_Texture: {fileID: 0}
        m_Scale: {x: 1, y: 1}
        m_Offset: {x: 0, y: 0}
    - _SampleTexture2D_e6dbf50bbf544938baef215865179423_Texture_1:
        m_Texture: {fileID: 0}
        m_Scale: {x: 1, y: 1}
        m_Offset: {x: 0, y: 0}
    - _SpecGlossMap:
        m_Texture: {fileID: 0}
        m_Scale: {x: 1, y: 1}
        m_Offset: {x: 0, y: 0}
    - unity_Lightmaps:
        m_Texture: {fileID: 0}
        m_Scale: {x: 1, y: 1}
        m_Offset: {x: 0, y: 0}
    - unity_LightmapsInd:
        m_Texture: {fileID: 0}
        m_Scale: {x: 1, y: 1}
        m_Offset: {x: 0, y: 0}
    - unity_ShadowMasks:
        m_Texture: {fileID: 0}
        m_Scale: {x: 1, y: 1}
        m_Offset: {x: 0, y: 0}
    m_Floats:
    - Boolean_09847deff47a4d49ac51418d8aecf52a: 0
    - Boolean_27433c40733442ab879825b90315ebf0: 0
    - Boolean_41d46637b5b14f0baae1582043f158dd: 0
    - Boolean_a0148921cf3a4d369dad78de02e5d40a: 0
    - Boolean_e3ba3146151444ac8d402af4e491e595: 0
    - Boolean_ff88bcfac9284a66bb32858891c141a8: 0
    - Vector1_215fd65c9435435d877184a4f13122f2: 0.606
    - Vector1_389ed52c413b4ae5b15f53d496c2fa16: 0
    - Vector1_425031a565284237adb65f9b5f21b32c: 0.43
    - Vector1_80ab7b041d89486e8e433367a99a9936: 0.36
    - Vector1_a6d37c8456d147f884d5bf1ede6a1f2a: 0.346
    - Vector1_a6d37c8456d147f884d5bf1ede6a1f2a_1: 0.5
    - _AlphaClip: 0
    - _Blend: 0
    - _BumpScale: 1
    - _ClearCoatMask: 0
    - _ClearCoatSmoothness: 0
    - _Cull: 2
    - _Cutoff: 0.5
    - _DetailAlbedoMapScale: 1
    - _DetailNormalMapScale: 1
    - _DstBlend: 0
    - _EnvironmentReflections: 1
    - _GlossMapScale: 0
    - _Glossiness: 0
    - _GlossyReflections: 0
    - _Metallic: 0
    - _OcclusionStrength: 0.196
    - _Parallax: 0.005
    - _QueueOffset: 0
    - _ReceiveShadows: 1
    - _Smoothness: 0.5
    - _SmoothnessTextureChannel: 0
    - _SpecularHighlights: 1
    - _SrcBlend: 1
    - _Surface: 0
    - _WorkflowMode: 1
    - _ZWrite: 1
    m_Colors:
    - Color_1: {r: 0.227451, g: 0.121568635, b: 0.04705883, a: 0}
    - Color_2: {r: 0.7254902, g: 0.45098042, b: 0.20000002, a: 0}
    - Color_27c3e7e669c545b682d1d3243fbf8fc7: {r: 0.2264151, g: 0.11976968, b: 0.047846198, a: 1}
    - Color_9f4846f4db0a4174afb64dc11257b2e0: {r: 0.7264151, g: 0.45233765, b: 0.20147738, a: 1}
    - Vector2_0933b95a5a804871adcd784ab64f59d9: {r: 1.75, g: 2.56, b: 0, a: 0}
    - Vector2_158b54587e894c9d8965bfbbdcdd639d: {r: 0, g: 10, b: 0, a: 0}
    - Vector2_5477459f0dba4a12871281177560b17d: {r: 1, g: 1, b: 0, a: 0}
    - Vector2_c8cd27859b4f41c18c2de54f7c5202b5: {r: 0.44, g: 0.32, b: 0, a: 0}
    - _BaseColor: {r: 1, g: 1, b: 1, a: 1}
    - _Color: {r: 1, g: 1, b: 1, a: 1}
    - _EmissionColor: {r: 0, g: 0, b: 0, a: 1}
    - _SpecColor: {r: 0.19999996, g: 0.19999996, b: 0.19999996, a: 1}
  m_BuildTextureStacks: []
--- !u!114 &1560280507409217042
MonoBehaviour:
  m_ObjectHideFlags: 11
  m_CorrespondingSourceObject: {fileID: 0}
  m_PrefabInstance: {fileID: 0}
  m_PrefabAsset: {fileID: 0}
  m_GameObject: {fileID: 0}
  m_Enabled: 1
  m_EditorHideFlags: 0
  m_Script: {fileID: 11500000, guid: d0353a89b1f911e48b9e16bdc9f2e058, type: 3}
  m_Name: 
  m_EditorClassIdentifier: 
  version: 4
