%YAML 1.1
%TAG !u! tag:unity3d.com,2011:
--- !u!1001 &2572515148484801837
PrefabInstance:
  m_ObjectHideFlags: 0
  serializedVersion: 2
  m_Modification:
    m_TransformParent: {fileID: 0}
    m_Modifications:
    - target: {fileID: -8679921383154817045, guid: b27cc1a9afc6c5e4986841a24d144dff, type: 3}
      propertyPath: m_RootOrder
      value: 0
      objectReference: {fileID: 0}
    - target: {fileID: -8679921383154817045, guid: b27cc1a9afc6c5e4986841a24d144dff, type: 3}
      propertyPath: m_LocalPosition.x
      value: 36.477867
      objectReference: {fileID: 0}
    - target: {fileID: -8679921383154817045, guid: b27cc1a9afc6c5e4986841a24d144dff, type: 3}
      propertyPath: m_LocalPosition.y
      value: 8.142157
      objectReference: {fileID: 0}
    - target: {fileID: -8679921383154817045, guid: b27cc1a9afc6c5e4986841a24d144dff, type: 3}
      propertyPath: m_LocalPosition.z
      value: 19.281784
      objectReference: {fileID: 0}
    - target: {fileID: -8679921383154817045, guid: b27cc1a9afc6c5e4986841a24d144dff, type: 3}
      propertyPath: m_LocalRotation.w
      value: 1
      objectReference: {fileID: 0}
    - target: {fileID: -8679921383154817045, guid: b27cc1a9afc6c5e4986841a24d144dff, type: 3}
      propertyPath: m_LocalRotation.x
      value: -0
      objectReference: {fileID: 0}
    - target: {fileID: -8679921383154817045, guid: b27cc1a9afc6c5e4986841a24d144dff, type: 3}
      propertyPath: m_LocalRotation.y
      value: -0
      objectReference: {fileID: 0}
    - target: {fileID: -8679921383154817045, guid: b27cc1a9afc6c5e4986841a24d144dff, type: 3}
      propertyPath: m_LocalRotation.z
      value: -0
      objectReference: {fileID: 0}
    - target: {fileID: -8679921383154817045, guid: b27cc1a9afc6c5e4986841a24d144dff, type: 3}
      propertyPath: m_LocalEulerAnglesHint.x
      value: 0
      objectReference: {fileID: 0}
    - target: {fileID: -8679921383154817045, guid: b27cc1a9afc6c5e4986841a24d144dff, type: 3}
      propertyPath: m_LocalEulerAnglesHint.y
      value: 0
      objectReference: {fileID: 0}
    - target: {fileID: -8679921383154817045, guid: b27cc1a9afc6c5e4986841a24d144dff, type: 3}
      propertyPath: m_LocalEulerAnglesHint.z
      value: 0
      objectReference: {fileID: 0}
    - target: {fileID: -7511558181221131132, guid: b27cc1a9afc6c5e4986841a24d144dff, type: 3}
      propertyPath: m_Materials.Array.data[0]
      value: 
      objectReference: {fileID: 2100000, guid: 9336c6e686fb8f6419b0d31b1d95dae5, type: 2}
    - target: {fileID: 919132149155446097, guid: b27cc1a9afc6c5e4986841a24d144dff, type: 3}
      propertyPath: m_Name
      value: Platform_Big
      objectReference: {fileID: 0}
    - target: {fileID: 919132149155446097, guid: b27cc1a9afc6c5e4986841a24d144dff, type: 3}
      propertyPath: m_TagString
      value: stone_terrain
      objectReference: {fileID: 0}
    - target: {fileID: 919132149155446097, guid: b27cc1a9afc6c5e4986841a24d144dff, type: 3}
      propertyPath: m_StaticEditorFlags
      value: 4294967295
      objectReference: {fileID: 0}
    m_RemovedComponents: []
  m_SourcePrefab: {fileID: 100100000, guid: b27cc1a9afc6c5e4986841a24d144dff, type: 3}
--- !u!1 &3418796390794545276 stripped
GameObject:
  m_CorrespondingSourceObject: {fileID: 919132149155446097, guid: b27cc1a9afc6c5e4986841a24d144dff, type: 3}
  m_PrefabInstance: {fileID: 2572515148484801837}
  m_PrefabAsset: {fileID: 0}
--- !u!65 &1460822516142918175
BoxCollider:
  m_ObjectHideFlags: 0
  m_CorrespondingSourceObject: {fileID: 0}
  m_PrefabInstance: {fileID: 0}
  m_PrefabAsset: {fileID: 0}
  m_GameObject: {fileID: 3418796390794545276}
  m_Material: {fileID: 0}
  m_IsTrigger: 0
  m_Enabled: 1
  serializedVersion: 2
  m_Size: {x: 352.41467, y: 57.616695, z: 342.769}
  m_Center: {x: 0, y: 0, z: 0}
