%YAML 1.1
%TAG !u! tag:unity3d.com,2011:
--- !u!1001 &2325704251340167149
PrefabInstance:
  m_ObjectHideFlags: 0
  serializedVersion: 2
  m_Modification:
    m_TransformParent: {fileID: 0}
    m_Modifications:
    - target: {fileID: -8679921383154817045, guid: 7dd12a91415be964db32c125903c26e2, type: 3}
      propertyPath: m_RootOrder
      value: 0
      objectReference: {fileID: 0}
    - target: {fileID: -8679921383154817045, guid: 7dd12a91415be964db32c125903c26e2, type: 3}
      propertyPath: m_LocalPosition.x
      value: 0
      objectReference: {fileID: 0}
    - target: {fileID: -8679921383154817045, guid: 7dd12a91415be964db32c125903c26e2, type: 3}
      propertyPath: m_LocalPosition.y
      value: 0
      objectReference: {fileID: 0}
    - target: {fileID: -8679921383154817045, guid: 7dd12a91415be964db32c125903c26e2, type: 3}
      propertyPath: m_LocalPosition.z
      value: 0
      objectReference: {fileID: 0}
    - target: {fileID: -8679921383154817045, guid: 7dd12a91415be964db32c125903c26e2, type: 3}
      propertyPath: m_LocalRotation.w
      value: 1
      objectReference: {fileID: 0}
    - target: {fileID: -8679921383154817045, guid: 7dd12a91415be964db32c125903c26e2, type: 3}
      propertyPath: m_LocalRotation.x
      value: 0
      objectReference: {fileID: 0}
    - target: {fileID: -8679921383154817045, guid: 7dd12a91415be964db32c125903c26e2, type: 3}
      propertyPath: m_LocalRotation.y
      value: -0
      objectReference: {fileID: 0}
    - target: {fileID: -8679921383154817045, guid: 7dd12a91415be964db32c125903c26e2, type: 3}
      propertyPath: m_LocalRotation.z
      value: -0
      objectReference: {fileID: 0}
    - target: {fileID: -8679921383154817045, guid: 7dd12a91415be964db32c125903c26e2, type: 3}
      propertyPath: m_LocalEulerAnglesHint.x
      value: 0
      objectReference: {fileID: 0}
    - target: {fileID: -8679921383154817045, guid: 7dd12a91415be964db32c125903c26e2, type: 3}
      propertyPath: m_LocalEulerAnglesHint.y
      value: 0
      objectReference: {fileID: 0}
    - target: {fileID: -8679921383154817045, guid: 7dd12a91415be964db32c125903c26e2, type: 3}
      propertyPath: m_LocalEulerAnglesHint.z
      value: 0
      objectReference: {fileID: 0}
    - target: {fileID: -7511558181221131132, guid: 7dd12a91415be964db32c125903c26e2, type: 3}
      propertyPath: m_Materials.Array.data[0]
      value: 
      objectReference: {fileID: 2100000, guid: 9336c6e686fb8f6419b0d31b1d95dae5, type: 2}
    - target: {fileID: -7511558181221131132, guid: 7dd12a91415be964db32c125903c26e2, type: 3}
      propertyPath: m_Materials.Array.data[1]
      value: 
      objectReference: {fileID: 2100000, guid: 9336c6e686fb8f6419b0d31b1d95dae5, type: 2}
    - target: {fileID: -7511558181221131132, guid: 7dd12a91415be964db32c125903c26e2, type: 3}
      propertyPath: m_Materials.Array.data[2]
      value: 
      objectReference: {fileID: 2100000, guid: 9336c6e686fb8f6419b0d31b1d95dae5, type: 2}
    - target: {fileID: 919132149155446097, guid: 7dd12a91415be964db32c125903c26e2, type: 3}
      propertyPath: m_Name
      value: Stairs_End
      objectReference: {fileID: 0}
    - target: {fileID: 919132149155446097, guid: 7dd12a91415be964db32c125903c26e2, type: 3}
      propertyPath: m_TagString
      value: stone_terrain
      objectReference: {fileID: 0}
    m_RemovedComponents: []
  m_SourcePrefab: {fileID: 100100000, guid: 7dd12a91415be964db32c125903c26e2, type: 3}
--- !u!1 &3208786560282667708 stripped
GameObject:
  m_CorrespondingSourceObject: {fileID: 919132149155446097, guid: 7dd12a91415be964db32c125903c26e2, type: 3}
  m_PrefabInstance: {fileID: 2325704251340167149}
  m_PrefabAsset: {fileID: 0}
--- !u!4 &2867727315599781894 stripped
Transform:
  m_CorrespondingSourceObject: {fileID: -8679921383154817045, guid: 7dd12a91415be964db32c125903c26e2, type: 3}
  m_PrefabInstance: {fileID: 2325704251340167149}
  m_PrefabAsset: {fileID: 0}
--- !u!65 &1318040147908963145
BoxCollider:
  m_ObjectHideFlags: 0
  m_CorrespondingSourceObject: {fileID: 0}
  m_PrefabInstance: {fileID: 0}
  m_PrefabAsset: {fileID: 0}
  m_GameObject: {fileID: 3208786560282667708}
  m_Material: {fileID: 0}
  m_IsTrigger: 0
  m_Enabled: 1
  serializedVersion: 2
  m_Size: {x: 2.4277246, y: 1.1119028, z: 2.492556}
  m_Center: {x: -0.0361377, y: 0.5082484, z: 1.246278}
--- !u!1001 &2423410223298778828
PrefabInstance:
  m_ObjectHideFlags: 0
  serializedVersion: 2
  m_Modification:
    m_TransformParent: {fileID: 2867727315599781894}
    m_Modifications:
    - target: {fileID: 314159181583099532, guid: a3c63b4268dc22747bc0ee63b05b6152, type: 3}
      propertyPath: m_Name
      value: Stairs_Collider (3)
      objectReference: {fileID: 0}
    - target: {fileID: 314159181583099532, guid: a3c63b4268dc22747bc0ee63b05b6152, type: 3}
      propertyPath: m_IsActive
      value: 1
      objectReference: {fileID: 0}
    - target: {fileID: 528500805389995719, guid: a3c63b4268dc22747bc0ee63b05b6152, type: 3}
      propertyPath: m_RootOrder
      value: 0
      objectReference: {fileID: 0}
    - target: {fileID: 528500805389995719, guid: a3c63b4268dc22747bc0ee63b05b6152, type: 3}
      propertyPath: m_LocalScale.x
      value: 1.1852025
      objectReference: {fileID: 0}
    - target: {fileID: 528500805389995719, guid: a3c63b4268dc22747bc0ee63b05b6152, type: 3}
      propertyPath: m_LocalScale.y
      value: 1
      objectReference: {fileID: 0}
    - target: {fileID: 528500805389995719, guid: a3c63b4268dc22747bc0ee63b05b6152, type: 3}
      propertyPath: m_LocalScale.z
      value: 1
      objectReference: {fileID: 0}
    - target: {fileID: 528500805389995719, guid: a3c63b4268dc22747bc0ee63b05b6152, type: 3}
      propertyPath: m_LocalPosition.x
      value: -1.23
      objectReference: {fileID: 0}
    - target: {fileID: 528500805389995719, guid: a3c63b4268dc22747bc0ee63b05b6152, type: 3}
      propertyPath: m_LocalPosition.y
      value: 1.25
      objectReference: {fileID: 0}
    - target: {fileID: 528500805389995719, guid: a3c63b4268dc22747bc0ee63b05b6152, type: 3}
      propertyPath: m_LocalPosition.z
      value: 0.015
      objectReference: {fileID: 0}
    - target: {fileID: 528500805389995719, guid: a3c63b4268dc22747bc0ee63b05b6152, type: 3}
      propertyPath: m_LocalRotation.w
      value: -0.027854696
      objectReference: {fileID: 0}
    - target: {fileID: 528500805389995719, guid: a3c63b4268dc22747bc0ee63b05b6152, type: 3}
      propertyPath: m_LocalRotation.x
      value: -0.003207481
      objectReference: {fileID: 0}
    - target: {fileID: 528500805389995719, guid: a3c63b4268dc22747bc0ee63b05b6152, type: 3}
      propertyPath: m_LocalRotation.y
      value: 0.9930451
      objectReference: {fileID: 0}
    - target: {fileID: 528500805389995719, guid: a3c63b4268dc22747bc0ee63b05b6152, type: 3}
      propertyPath: m_LocalRotation.z
      value: -0.114347704
      objectReference: {fileID: 0}
    - target: {fileID: 528500805389995719, guid: a3c63b4268dc22747bc0ee63b05b6152, type: 3}
      propertyPath: m_LocalEulerAnglesHint.x
      value: 13.137
      objectReference: {fileID: 0}
    - target: {fileID: 528500805389995719, guid: a3c63b4268dc22747bc0ee63b05b6152, type: 3}
      propertyPath: m_LocalEulerAnglesHint.y
      value: 183.213
      objectReference: {fileID: 0}
    - target: {fileID: 528500805389995719, guid: a3c63b4268dc22747bc0ee63b05b6152, type: 3}
      propertyPath: m_LocalEulerAnglesHint.z
      value: 0
      objectReference: {fileID: 0}
    - target: {fileID: 3291392468529703715, guid: a3c63b4268dc22747bc0ee63b05b6152, type: 3}
      propertyPath: m_Enabled
      value: 0
      objectReference: {fileID: 0}
    - target: {fileID: 3291392468529703715, guid: a3c63b4268dc22747bc0ee63b05b6152, type: 3}
      propertyPath: m_Materials.Array.data[0]
      value: 
      objectReference: {fileID: 2100000, guid: bbb235fff4f48426b863b36058ab66d2, type: 2}
    - target: {fileID: 6057071281499492982, guid: a3c63b4268dc22747bc0ee63b05b6152, type: 3}
      propertyPath: m_Mesh
      value: 
      objectReference: {fileID: 0}
    - target: {fileID: 6630867352378592691, guid: a3c63b4268dc22747bc0ee63b05b6152, type: 3}
      propertyPath: m_Mesh
      value: 
      objectReference: {fileID: 0}
    m_RemovedComponents: []
  m_SourcePrefab: {fileID: 100100000, guid: a3c63b4268dc22747bc0ee63b05b6152, type: 3}
--- !u!1 &2737538617482555456 stripped
GameObject:
  m_CorrespondingSourceObject: {fileID: 314159181583099532, guid: a3c63b4268dc22747bc0ee63b05b6152, type: 3}
  m_PrefabInstance: {fileID: 2423410223298778828}
  m_PrefabAsset: {fileID: 0}
--- !u!64 &5992705401085903120
MeshCollider:
  m_ObjectHideFlags: 0
  m_CorrespondingSourceObject: {fileID: 0}
  m_PrefabInstance: {fileID: 0}
  m_PrefabAsset: {fileID: 0}
  m_GameObject: {fileID: 2737538617482555456}
  m_Material: {fileID: 0}
  m_IsTrigger: 0
  m_Enabled: 1
  serializedVersion: 4
  m_Convex: 0
  m_CookingOptions: 30
  m_Mesh: {fileID: 0}
--- !u!114 &410462366339152324
MonoBehaviour:
  m_ObjectHideFlags: 0
  m_CorrespondingSourceObject: {fileID: 0}
  m_PrefabInstance: {fileID: 0}
  m_PrefabAsset: {fileID: 0}
  m_GameObject: {fileID: 2737538617482555456}
  m_Enabled: 1
  m_EditorHideFlags: 0
  m_Script: {fileID: 11500000, guid: 57444c075000242ea99e263cee940de2, type: 3}
  m_Name: 
  m_EditorClassIdentifier: 
  manageVisibility: 1
