%YAML 1.1
%TAG !u! tag:unity3d.com,2011:
--- !u!114 &-5700055728881969726
MonoBehaviour:
  m_ObjectHideFlags: 11
  m_CorrespondingSourceObject: {fileID: 0}
  m_PrefabInstance: {fileID: 0}
  m_PrefabAsset: {fileID: 0}
  m_GameObject: {fileID: 0}
  m_Enabled: 1
  m_EditorHideFlags: 0
  m_Script: {fileID: 11500000, guid: d0353a89b1f911e48b9e16bdc9f2e058, type: 3}
  m_Name: 
  m_EditorClassIdentifier: 
  version: 4
--- !u!21 &2100000
Material:
  serializedVersion: 6
  m_ObjectHideFlags: 0
  m_CorrespondingSourceObject: {fileID: 0}
  m_PrefabInstance: {fileID: 0}
  m_PrefabAsset: {fileID: 0}
  m_Name: Signal_XFade
  m_Shader: {fileID: -6465566751694194690, guid: a583182ad50240f418a593b695ae34b5, type: 3}
  m_ShaderKeywords: _EMISSION
  m_LightmapFlags: 2
  m_EnableInstancingVariants: 0
  m_DoubleSidedGI: 0
  m_CustomRenderQueue: -1
  stringTagMap: {}
  disabledShaderPasses: []
  m_SavedProperties:
    serializedVersion: 3
    m_TexEnvs:
    - Texture2D_471fc45d372d4321a6df3dc76ee660a7:
        m_Texture: {fileID: 10300, guid: 0000000000000000f000000000000000, type: 0}
        m_Scale: {x: 1, y: 1}
        m_Offset: {x: 0, y: 0}
    - Texture2D_f24754cf68e74d78ae134267bda93ac1:
        m_Texture: {fileID: 2800000, guid: 275f866bdc225a649bc5ff39ac47b5ff, type: 3}
        m_Scale: {x: 1, y: 1}
        m_Offset: {x: 0, y: 0}
    - _AlphaTex:
        m_Texture: {fileID: 0}
        m_Scale: {x: 1, y: 1}
        m_Offset: {x: 0, y: 0}
    - _BaseMap:
        m_Texture: {fileID: 0}
        m_Scale: {x: 1, y: 1}
        m_Offset: {x: 0, y: 0}
    - _BumpMap:
        m_Texture: {fileID: 0}
        m_Scale: {x: 1, y: 1}
        m_Offset: {x: 0, y: 0}
    - _DetailAlbedoMap:
        m_Texture: {fileID: 0}
        m_Scale: {x: 1, y: 1}
        m_Offset: {x: 0, y: 0}
    - _DetailMask:
        m_Texture: {fileID: 0}
        m_Scale: {x: 1, y: 1}
        m_Offset: {x: 0, y: 0}
    - _DetailNormalMap:
        m_Texture: {fileID: 0}
        m_Scale: {x: 1, y: 1}
        m_Offset: {x: 0, y: 0}
    - _EmissionMap:
        m_Texture: {fileID: 0}
        m_Scale: {x: 1, y: 1}
        m_Offset: {x: 0, y: 0}
    - _MainTex:
        m_Texture: {fileID: 0}
        m_Scale: {x: 1, y: 1}
        m_Offset: {x: 0, y: 0}
    - _MetallicGlossMap:
        m_Texture: {fileID: 0}
        m_Scale: {x: 1, y: 1}
        m_Offset: {x: 0, y: 0}
    - _OcclusionMap:
        m_Texture: {fileID: 0}
        m_Scale: {x: 1, y: 1}
        m_Offset: {x: 0, y: 0}
    - _ParallaxMap:
        m_Texture: {fileID: 0}
        m_Scale: {x: 1, y: 1}
        m_Offset: {x: 0, y: 0}
    - _SampleTexture2D_cf590b5119db4e1bb6efed830d53bf3d_Texture_1:
        m_Texture: {fileID: 0}
        m_Scale: {x: 1, y: 1}
        m_Offset: {x: 0, y: 0}
    - _SpecGlossMap:
        m_Texture: {fileID: 0}
        m_Scale: {x: 1, y: 1}
        m_Offset: {x: 0, y: 0}
    - unity_Lightmaps:
        m_Texture: {fileID: 0}
        m_Scale: {x: 1, y: 1}
        m_Offset: {x: 0, y: 0}
    - unity_LightmapsInd:
        m_Texture: {fileID: 0}
        m_Scale: {x: 1, y: 1}
        m_Offset: {x: 0, y: 0}
    - unity_ShadowMasks:
        m_Texture: {fileID: 0}
        m_Scale: {x: 1, y: 1}
        m_Offset: {x: 0, y: 0}
    m_Floats:
    - Boolean_74a48ec5b2b74899be628eec9e5dc4df: 1
    - Boolean_a9fae95d90df427e9c91fcdf2d54b451: 1
    - Boolean_ad9a4d66b02a4136b1996c935bf4050c: 0
    - PixelSnap: 0
    - Vector1_0225004387de468cb4e0c7814eb00ae2: 0.5
    - Vector1_064c2e4b5148404b89af93775cb4dc65: 1
    - Vector1_0cfe988ba7b5407b87c1b6940fb9b551: 0.7
    - Vector1_13d534c20ce54352b2875a30bf1ceb57: 0.1
    - Vector1_2464f88da3fd4bb2aae5cde24c1a6828: 0.9
    - Vector1_31d2057d628749619b50b84177427af9: 1
    - Vector1_347e681d6bfa49299b25de5e7f40bd77: 0
    - Vector1_3c2cb0eb904c4984a79f195c307b13da: 0.1
    - Vector1_3e1964f3148e4bba92f67bfc96ddec2d: 30.12
    - Vector1_49fb1244bd994bff90450ff9186c2574: 0
    - Vector1_532b672fad384616855e9efd2908e70c: 1.09
    - Vector1_5e6a952dd9004e76b49fd684b3c234df: 0.19
    - Vector1_667c0a22f078428d92789e281923526c: 0.9
    - Vector1_69104b1e2acb42a4b2fe2e491560f138: 1
    - Vector1_691c7e90d96f4f1eb3fce83e4454aa8e: 0.5
    - Vector1_6e51b270d0d7432586f0c05254178012: 7.5
    - Vector1_7b8d057721b345f0973f0692bdad8d16: 0.97
    - Vector1_8d82846ee14b4a24b3bad5714c171ddb: 1.48
    - Vector1_8ffffff762984d9ab88005a0de12e5d8: 0
    - Vector1_97be1a0fc97a43b6be1f6eb8e73d3545: 1
    - Vector1_9c32ed1cd23143d99796c3751d25d3d0: 0.001
    - Vector1_aa8479849a104734bfa6a7795ea34734: 29.21
    - Vector1_ab41a4f143a84329847cbd3eb9268157: 1.3
    - Vector1_b686d28c57d84e618c8e48aef80b0af3: -34
    - Vector1_c2667e085a9c465c939bc61668a1f4be: 1.5
    - Vector1_cc214f553852442498e822de643938f2: 1
    - Vector1_d68b65cc0c6046c4bb0944427c7857a7: 1.15
    - Vector1_db89bf2a72b84ac5ae8e620976845d47: 1.21
    - Vector1_dda655bec89a4c9c9204aef8e79f6eff: 1.23
    - Vector1_e5c97c31857c4aac93aef1467d4fb64b: 0
    - Vector1_f4553a88a1744f2ba199f1afd07ddaa3: 10.39
    - Vector1_f5266f26ba8a4e849ac77eb30027c64e: 1
    - Vector1_f864565588f14df694afe08685e5a473: 1
    - _AlphaClip: 0
    - _Blend: 0
    - _BlendOp: 0
    - _BumpScale: 1
    - _CameraFadingEnabled: 0
    - _CameraFarFadeDistance: 2
    - _CameraNearFadeDistance: 1
    - _ClearCoatMask: 0
    - _ClearCoatSmoothness: 0
    - _ColorMask: 15
    - _ColorMode: 0
    - _Cull: 2
    - _Cutoff: 0.5
    - _DetailAlbedoMapScale: 1
    - _DetailNormalMapScale: 1
    - _DistortionBlend: 0.5
    - _DistortionEnabled: 0
    - _DistortionStrength: 1
    - _DistortionStrengthScaled: 0
    - _DstBlend: 0
    - _EmissionEnabled: 0
    - _EnableExternalAlpha: 0
    - _EnvironmentReflections: 1
    - _FlipbookMode: 0
    - _GlossMapScale: 0
    - _Glossiness: 0
    - _GlossyReflections: 0
    - _LightingEnabled: 0
    - _Metallic: 0
    - _Mode: 0
    - _OcclusionStrength: 1
    - _Parallax: 0.005
    - _QueueOffset: 0
    - _ReceiveShadows: 1
    - _SampleGI: 0
    - _Smoothness: 0
    - _SmoothnessTextureChannel: 0
    - _SoftParticlesEnabled: 0
    - _SoftParticlesFarFadeDistance: 1
    - _SoftParticlesNearFadeDistance: 0
    - _SpecularHighlights: 1
    - _SrcBlend: 1
    - _Stencil: 0
    - _StencilComp: 8
    - _StencilOp: 0
    - _StencilReadMask: 255
    - _StencilWriteMask: 255
    - _Surface: 0
    - _UseUIAlphaClip: 0
    - _WorkflowMode: 1
    - _ZWrite: 1
    m_Colors:
    - Color_26c70d3d7235451fa723d59b51a9efee: {r: 0, g: 0, b: 0, a: 0}
    - Color_2a3be37f3a2345c58817a2f99f6a0125: {r: 0.9610782, g: 0.9622641, b: 0.8478819, a: 0}
    - Color_3a4a7d326b544ea890cd70790e1dc50f: {r: 0.48989707, g: 0.8867924, b: 0.43837658, a: 0}
    - Color_423680dcf3504f33bfa0cad6c7634e61: {r: 41.73181, g: 10.70607, b: 5.025297, a: 1}
    - Color_918db0f061244772983193f5385c6f2f: {r: 0, g: 0.3868959, b: 1.9289464, a: 0}
    - Color_9c2cf66d64564755b93316660f0df99b: {r: 0.35849056, g: 0.17642775, b: 0.03855462, a: 0}
    - Color_b7fdd3b956db4bf09eb67875b52de616: {r: 0.8018868, g: 0.55678797, b: 0.20728007, a: 1}
    - Color_ca3d6922b91e49ea80b2cb8525b3231f: {r: 0.9433962, g: 0.7698193, b: 0.27945888, a: 1}
    - Vector2_103221f15f334134939a8eea23a843a3: {r: -640.8, g: 0, b: 0, a: 0}
    - Vector2_18d472c1ec17421685cabbdde3495210: {r: 2, g: 2, b: 0, a: 0}
    - Vector2_292b37f81fd04169b29705f5ba5c715f: {r: 0, g: 0, b: 0, a: 0}
    - Vector2_d4fae4e5321247ad8f7740dd7f88a145: {r: 0, g: -0.3, b: 0, a: 0}
    - Vector2_f36c6e084cc8432a911239f36b0b890f: {r: -0.1, g: -0.5, b: 0, a: 0}
    - _BaseColor: {r: 1, g: 1, b: 1, a: 1}
    - _CameraFadeParams: {r: 0, g: Infinity, b: 0, a: 0}
    - _Color: {r: 1, g: 1, b: 1, a: 1}
    - _ColorAddSubDiff: {r: 0, g: 0, b: 0, a: 0}
    - _EmissionColor: {r: 0.38148782, g: 3.5471697, b: 2.26263, a: 1}
    - _Flip: {r: 1, g: 1, b: 1, a: 1}
    - _RendererColor: {r: 1, g: 1, b: 1, a: 1}
    - _SoftParticleFadeParams: {r: 0, g: 0, b: 0, a: 0}
    - _SpecColor: {r: 0.19999996, g: 0.19999996, b: 0.19999996, a: 1}
    - _Specular: {r: 1, g: 1, b: 1, a: 0}
  m_BuildTextureStacks: []
