%YAML 1.1
%TAG !u! tag:unity3d.com,2011:
--- !u!1001 &6983207940471944078
PrefabInstance:
  m_ObjectHideFlags: 0
  serializedVersion: 2
  m_Modification:
    m_TransformParent: {fileID: 0}
    m_Modifications:
    - target: {fileID: -8679921383154817045, guid: 87ab69abd0be1ed4e873166d13dd20a7, type: 3}
      propertyPath: m_RootOrder
      value: 0
      objectReference: {fileID: 0}
    - target: {fileID: -8679921383154817045, guid: 87ab69abd0be1ed4e873166d13dd20a7, type: 3}
      propertyPath: m_LocalPosition.x
      value: -88.791595
      objectReference: {fileID: 0}
    - target: {fileID: -8679921383154817045, guid: 87ab69abd0be1ed4e873166d13dd20a7, type: 3}
      propertyPath: m_LocalPosition.y
      value: 64.13821
      objectReference: {fileID: 0}
    - target: {fileID: -8679921383154817045, guid: 87ab69abd0be1ed4e873166d13dd20a7, type: 3}
      propertyPath: m_LocalPosition.z
      value: -60.281784
      objectReference: {fileID: 0}
    - target: {fileID: -8679921383154817045, guid: 87ab69abd0be1ed4e873166d13dd20a7, type: 3}
      propertyPath: m_LocalRotation.w
      value: 1
      objectReference: {fileID: 0}
    - target: {fileID: -8679921383154817045, guid: 87ab69abd0be1ed4e873166d13dd20a7, type: 3}
      propertyPath: m_LocalRotation.x
      value: 0
      objectReference: {fileID: 0}
    - target: {fileID: -8679921383154817045, guid: 87ab69abd0be1ed4e873166d13dd20a7, type: 3}
      propertyPath: m_LocalRotation.y
      value: -0
      objectReference: {fileID: 0}
    - target: {fileID: -8679921383154817045, guid: 87ab69abd0be1ed4e873166d13dd20a7, type: 3}
      propertyPath: m_LocalRotation.z
      value: -0
      objectReference: {fileID: 0}
    - target: {fileID: -8679921383154817045, guid: 87ab69abd0be1ed4e873166d13dd20a7, type: 3}
      propertyPath: m_LocalEulerAnglesHint.x
      value: 0
      objectReference: {fileID: 0}
    - target: {fileID: -8679921383154817045, guid: 87ab69abd0be1ed4e873166d13dd20a7, type: 3}
      propertyPath: m_LocalEulerAnglesHint.y
      value: 0
      objectReference: {fileID: 0}
    - target: {fileID: -8679921383154817045, guid: 87ab69abd0be1ed4e873166d13dd20a7, type: 3}
      propertyPath: m_LocalEulerAnglesHint.z
      value: 0
      objectReference: {fileID: 0}
    - target: {fileID: 919132149155446097, guid: 87ab69abd0be1ed4e873166d13dd20a7, type: 3}
      propertyPath: m_Name
      value: Brick_HighPoly_SideLeft
      objectReference: {fileID: 0}
    m_RemovedComponents: []
  m_SourcePrefab: {fileID: 100100000, guid: 87ab69abd0be1ed4e873166d13dd20a7, type: 3}
