%YAML 1.1
%TAG !u! tag:unity3d.com,2011:
--- !u!1001 &6237592369919168161
PrefabInstance:
  m_ObjectHideFlags: 0
  serializedVersion: 2
  m_Modification:
    m_TransformParent: {fileID: 0}
    m_Modifications:
    - target: {fileID: -8679921383154817045, guid: f3e7dec983a529d428b0c05fcb639543, type: 3}
      propertyPath: m_RootOrder
      value: 0
      objectReference: {fileID: 0}
    - target: {fileID: -8679921383154817045, guid: f3e7dec983a529d428b0c05fcb639543, type: 3}
      propertyPath: m_LocalPosition.x
      value: -56.205738
      objectReference: {fileID: 0}
    - target: {fileID: -8679921383154817045, guid: f3e7dec983a529d428b0c05fcb639543, type: 3}
      propertyPath: m_LocalPosition.y
      value: 35.858837
      objectReference: {fileID: 0}
    - target: {fileID: -8679921383154817045, guid: f3e7dec983a529d428b0c05fcb639543, type: 3}
      propertyPath: m_LocalPosition.z
      value: -32.11906
      objectReference: {fileID: 0}
    - target: {fileID: -8679921383154817045, guid: f3e7dec983a529d428b0c05fcb639543, type: 3}
      propertyPath: m_LocalRotation.w
      value: 1
      objectReference: {fileID: 0}
    - target: {fileID: -8679921383154817045, guid: f3e7dec983a529d428b0c05fcb639543, type: 3}
      propertyPath: m_LocalRotation.x
      value: 0
      objectReference: {fileID: 0}
    - target: {fileID: -8679921383154817045, guid: f3e7dec983a529d428b0c05fcb639543, type: 3}
      propertyPath: m_LocalRotation.y
      value: -0
      objectReference: {fileID: 0}
    - target: {fileID: -8679921383154817045, guid: f3e7dec983a529d428b0c05fcb639543, type: 3}
      propertyPath: m_LocalRotation.z
      value: -0
      objectReference: {fileID: 0}
    - target: {fileID: -8679921383154817045, guid: f3e7dec983a529d428b0c05fcb639543, type: 3}
      propertyPath: m_LocalEulerAnglesHint.x
      value: 0
      objectReference: {fileID: 0}
    - target: {fileID: -8679921383154817045, guid: f3e7dec983a529d428b0c05fcb639543, type: 3}
      propertyPath: m_LocalEulerAnglesHint.y
      value: 0
      objectReference: {fileID: 0}
    - target: {fileID: -8679921383154817045, guid: f3e7dec983a529d428b0c05fcb639543, type: 3}
      propertyPath: m_LocalEulerAnglesHint.z
      value: 0
      objectReference: {fileID: 0}
    - target: {fileID: -7511558181221131132, guid: f3e7dec983a529d428b0c05fcb639543, type: 3}
      propertyPath: m_Materials.Array.data[0]
      value: 
      objectReference: {fileID: 2100000, guid: 9336c6e686fb8f6419b0d31b1d95dae5, type: 2}
    - target: {fileID: 919132149155446097, guid: f3e7dec983a529d428b0c05fcb639543, type: 3}
      propertyPath: m_Name
      value: Pillar_Part_4
      objectReference: {fileID: 0}
    - target: {fileID: 919132149155446097, guid: f3e7dec983a529d428b0c05fcb639543, type: 3}
      propertyPath: m_StaticEditorFlags
      value: 4294967295
      objectReference: {fileID: 0}
    m_RemovedComponents: []
  m_SourcePrefab: {fileID: 100100000, guid: f3e7dec983a529d428b0c05fcb639543, type: 3}
--- !u!1 &6507992727755764720 stripped
GameObject:
  m_CorrespondingSourceObject: {fileID: 919132149155446097, guid: f3e7dec983a529d428b0c05fcb639543, type: 3}
  m_PrefabInstance: {fileID: 6237592369919168161}
  m_PrefabAsset: {fileID: 0}
--- !u!65 &646288217613818953
BoxCollider:
  m_ObjectHideFlags: 0
  m_CorrespondingSourceObject: {fileID: 0}
  m_PrefabInstance: {fileID: 0}
  m_PrefabAsset: {fileID: 0}
  m_GameObject: {fileID: 6507992727755764720}
  m_Material: {fileID: 0}
  m_IsTrigger: 0
  m_Enabled: 1
  serializedVersion: 2
  m_Size: {x: 129.9668, y: 45.465027, z: 68.46881}
  m_Center: {x: 0.69748163, y: 22.555573, z: -32.720352}
--- !u!65 &5178920867586400789
BoxCollider:
  m_ObjectHideFlags: 0
  m_CorrespondingSourceObject: {fileID: 0}
  m_PrefabInstance: {fileID: 0}
  m_PrefabAsset: {fileID: 0}
  m_GameObject: {fileID: 6507992727755764720}
  m_Material: {fileID: 0}
  m_IsTrigger: 0
  m_Enabled: 1
  serializedVersion: 2
  m_Size: {x: 129.9668, y: 56.886684, z: 66.746475}
  m_Center: {x: 0.69748163, y: 28.2664, z: 33.58152}
