%YAML 1.1
%TAG !u! tag:unity3d.com,2011:
--- !u!1001 &1021290772263284267
PrefabInstance:
  m_ObjectHideFlags: 0
  serializedVersion: 2
  m_Modification:
    m_TransformParent: {fileID: 0}
    m_Modifications:
    - target: {fileID: -8679921383154817045, guid: 896b5517ce362434e9ea1942c17c675e, type: 3}
      propertyPath: m_RootOrder
      value: 0
      objectReference: {fileID: 0}
    - target: {fileID: -8679921383154817045, guid: 896b5517ce362434e9ea1942c17c675e, type: 3}
      propertyPath: m_LocalPosition.x
      value: -58.60659
      objectReference: {fileID: 0}
    - target: {fileID: -8679921383154817045, guid: 896b5517ce362434e9ea1942c17c675e, type: 3}
      propertyPath: m_LocalPosition.y
      value: 34.60967
      objectReference: {fileID: 0}
    - target: {fileID: -8679921383154817045, guid: 896b5517ce362434e9ea1942c17c675e, type: 3}
      propertyPath: m_LocalPosition.z
      value: -32.352345
      objectReference: {fileID: 0}
    - target: {fileID: -8679921383154817045, guid: 896b5517ce362434e9ea1942c17c675e, type: 3}
      propertyPath: m_LocalRotation.w
      value: 1
      objectReference: {fileID: 0}
    - target: {fileID: -8679921383154817045, guid: 896b5517ce362434e9ea1942c17c675e, type: 3}
      propertyPath: m_LocalRotation.x
      value: 0
      objectReference: {fileID: 0}
    - target: {fileID: -8679921383154817045, guid: 896b5517ce362434e9ea1942c17c675e, type: 3}
      propertyPath: m_LocalRotation.y
      value: -0
      objectReference: {fileID: 0}
    - target: {fileID: -8679921383154817045, guid: 896b5517ce362434e9ea1942c17c675e, type: 3}
      propertyPath: m_LocalRotation.z
      value: -0
      objectReference: {fileID: 0}
    - target: {fileID: -8679921383154817045, guid: 896b5517ce362434e9ea1942c17c675e, type: 3}
      propertyPath: m_LocalEulerAnglesHint.x
      value: 0
      objectReference: {fileID: 0}
    - target: {fileID: -8679921383154817045, guid: 896b5517ce362434e9ea1942c17c675e, type: 3}
      propertyPath: m_LocalEulerAnglesHint.y
      value: 0
      objectReference: {fileID: 0}
    - target: {fileID: -8679921383154817045, guid: 896b5517ce362434e9ea1942c17c675e, type: 3}
      propertyPath: m_LocalEulerAnglesHint.z
      value: 0
      objectReference: {fileID: 0}
    - target: {fileID: -7511558181221131132, guid: 896b5517ce362434e9ea1942c17c675e, type: 3}
      propertyPath: m_Materials.Array.data[0]
      value: 
      objectReference: {fileID: 2100000, guid: 9336c6e686fb8f6419b0d31b1d95dae5, type: 2}
    - target: {fileID: -7511558181221131132, guid: 896b5517ce362434e9ea1942c17c675e, type: 3}
      propertyPath: m_Materials.Array.data[1]
      value: 
      objectReference: {fileID: 2100000, guid: 1c7ff9f3042286547af4dce7ce90b57d, type: 2}
    - target: {fileID: -7511558181221131132, guid: 896b5517ce362434e9ea1942c17c675e, type: 3}
      propertyPath: m_Materials.Array.data[2]
      value: 
      objectReference: {fileID: 2100000, guid: 08c8de579b5359946985d90b2c607d90, type: 2}
    - target: {fileID: 919132149155446097, guid: 896b5517ce362434e9ea1942c17c675e, type: 3}
      propertyPath: m_Name
      value: Pillar_Rectangle_Full
      objectReference: {fileID: 0}
    - target: {fileID: 919132149155446097, guid: 896b5517ce362434e9ea1942c17c675e, type: 3}
      propertyPath: m_StaticEditorFlags
      value: 4294967295
      objectReference: {fileID: 0}
    m_RemovedComponents: []
  m_SourcePrefab: {fileID: 100100000, guid: 896b5517ce362434e9ea1942c17c675e, type: 3}
--- !u!1 &210881220155675514 stripped
GameObject:
  m_CorrespondingSourceObject: {fileID: 919132149155446097, guid: 896b5517ce362434e9ea1942c17c675e, type: 3}
  m_PrefabInstance: {fileID: 1021290772263284267}
  m_PrefabAsset: {fileID: 0}
--- !u!65 &544470577974377347
BoxCollider:
  m_ObjectHideFlags: 0
  m_CorrespondingSourceObject: {fileID: 0}
  m_PrefabInstance: {fileID: 0}
  m_PrefabAsset: {fileID: 0}
  m_GameObject: {fileID: 210881220155675514}
  m_Material: {fileID: 0}
  m_IsTrigger: 0
  m_Enabled: 1
  serializedVersion: 2
  m_Size: {x: 85.49614, y: 395.84427, z: 83.8213}
  m_Center: {x: 2.0132065, y: 214.83192, z: 1.2078285}
--- !u!65 &6830372182873494934
BoxCollider:
  m_ObjectHideFlags: 0
  m_CorrespondingSourceObject: {fileID: 0}
  m_PrefabInstance: {fileID: 0}
  m_PrefabAsset: {fileID: 0}
  m_GameObject: {fileID: 210881220155675514}
  m_Material: {fileID: 0}
  m_IsTrigger: 0
  m_Enabled: 1
  serializedVersion: 2
  m_Size: {x: 176.48688, y: 31.881046, z: 174.81206}
  m_Center: {x: 0.0000059604645, y: 428.21738, z: 0}
--- !u!65 &7842317190061594712
BoxCollider:
  m_ObjectHideFlags: 0
  m_CorrespondingSourceObject: {fileID: 0}
  m_PrefabInstance: {fileID: 0}
  m_PrefabAsset: {fileID: 0}
  m_GameObject: {fileID: 210881220155675514}
  m_Material: {fileID: 0}
  m_IsTrigger: 0
  m_Enabled: 1
  serializedVersion: 2
  m_Size: {x: 107.23724, y: 16.967392, z: 105.56259}
  m_Center: {x: 0.8052826, y: 8.483696, z: -0.8052826}
