%YAML 1.1
%TAG !u! tag:unity3d.com,2011:
--- !u!1001 &8948459241832319954
PrefabInstance:
  m_ObjectHideFlags: 0
  serializedVersion: 2
  m_Modification:
    m_TransformParent: {fileID: 0}
    m_Modifications:
    - target: {fileID: -4216859302048453862, guid: a7646d4f6cd63254bba984ad14650947, type: 3}
      propertyPath: m_RootOrder
      value: 0
      objectReference: {fileID: 0}
    - target: {fileID: -4216859302048453862, guid: a7646d4f6cd63254bba984ad14650947, type: 3}
      propertyPath: m_LocalPosition.x
      value: 32.94832
      objectReference: {fileID: 0}
    - target: {fileID: -4216859302048453862, guid: a7646d4f6cd63254bba984ad14650947, type: 3}
      propertyPath: m_LocalPosition.y
      value: 0
      objectReference: {fileID: 0}
    - target: {fileID: -4216859302048453862, guid: a7646d4f6cd63254bba984ad14650947, type: 3}
      propertyPath: m_LocalPosition.z
      value: -28.71389
      objectReference: {fileID: 0}
    - target: {fileID: -4216859302048453862, guid: a7646d4f6cd63254bba984ad14650947, type: 3}
      propertyPath: m_LocalRotation.w
      value: 1
      objectReference: {fileID: 0}
    - target: {fileID: -4216859302048453862, guid: a7646d4f6cd63254bba984ad14650947, type: 3}
      propertyPath: m_LocalRotation.x
      value: 0
      objectReference: {fileID: 0}
    - target: {fileID: -4216859302048453862, guid: a7646d4f6cd63254bba984ad14650947, type: 3}
      propertyPath: m_LocalRotation.y
      value: -0
      objectReference: {fileID: 0}
    - target: {fileID: -4216859302048453862, guid: a7646d4f6cd63254bba984ad14650947, type: 3}
      propertyPath: m_LocalRotation.z
      value: -0
      objectReference: {fileID: 0}
    - target: {fileID: -4216859302048453862, guid: a7646d4f6cd63254bba984ad14650947, type: 3}
      propertyPath: m_LocalEulerAnglesHint.x
      value: 0
      objectReference: {fileID: 0}
    - target: {fileID: -4216859302048453862, guid: a7646d4f6cd63254bba984ad14650947, type: 3}
      propertyPath: m_LocalEulerAnglesHint.y
      value: 0
      objectReference: {fileID: 0}
    - target: {fileID: -4216859302048453862, guid: a7646d4f6cd63254bba984ad14650947, type: 3}
      propertyPath: m_LocalEulerAnglesHint.z
      value: 0
      objectReference: {fileID: 0}
    - target: {fileID: -1504981713932161579, guid: a7646d4f6cd63254bba984ad14650947, type: 3}
      propertyPath: m_Materials.Array.data[0]
      value: 
      objectReference: {fileID: 2100000, guid: 193706c8c260ea1459e2acd998a4a5e0, type: 2}
    - target: {fileID: -1504981713932161579, guid: a7646d4f6cd63254bba984ad14650947, type: 3}
      propertyPath: m_Materials.Array.data[1]
      value: 
      objectReference: {fileID: 2100000, guid: 0d9e69e16ee0d8740a95b9401f9245a1, type: 2}
    - target: {fileID: -927199367670048503, guid: a7646d4f6cd63254bba984ad14650947, type: 3}
      propertyPath: m_Name
      value: Lever
      objectReference: {fileID: 0}
    m_RemovedComponents: []
  m_SourcePrefab: {fileID: 100100000, guid: a7646d4f6cd63254bba984ad14650947, type: 3}
--- !u!1 &1085012722584998619 stripped
GameObject:
  m_CorrespondingSourceObject: {fileID: -927199367670048503, guid: a7646d4f6cd63254bba984ad14650947, type: 3}
  m_PrefabInstance: {fileID: 8948459241832319954}
  m_PrefabAsset: {fileID: 0}
--- !u!65 &8993108777050430220
BoxCollider:
  m_ObjectHideFlags: 0
  m_CorrespondingSourceObject: {fileID: 0}
  m_PrefabInstance: {fileID: 0}
  m_PrefabAsset: {fileID: 0}
  m_GameObject: {fileID: 1085012722584998619}
  m_Material: {fileID: 0}
  m_IsTrigger: 0
  m_Enabled: 1
  serializedVersion: 2
  m_Size: {x: 12.126503, y: 130.28113, z: 12.305404}
  m_Center: {x: 0, y: 0, z: 0}
