%YAML 1.1
%TAG !u! tag:unity3d.com,2011:
--- !u!114 &11400000
MonoBehaviour:
  m_ObjectHideFlags: 0
  m_CorrespondingSourceObject: {fileID: 0}
  m_PrefabInstance: {fileID: 0}
  m_PrefabAsset: {fileID: 0}
  m_GameObject: {fileID: 0}
  m_Enabled: 1
  m_EditorHideFlags: 0
  m_Script: {fileID: 11500000, guid: 21cb495ffbca0404d878640680165899, type: 3}
  m_Name: activeSave
  m_EditorClassIdentifier: 
  prefabList: []
  prefabData:
  - prefab: {fileID: 8746646593286641265, guid: ed8c08836b7cc2744b2ca48e91121a1e, type: 3}
    selected: 1
  - prefab: {fileID: 4157194437208484621, guid: ad7d351d1c6890248a187f4faa1ee6f0, type: 3}
    selected: 1
  - prefab: {fileID: 8595492364160619316, guid: 04da245b99631494cb75a065b704285d, type: 3}
    selected: 1
  - prefab: {fileID: 2849306377007379546, guid: 2f2d4de80ca8dfe47b3cdb4af36f7634, type: 3}
    selected: 1
  - prefab: {fileID: 8146000902863102088, guid: 35bd0a9260826ba4e91ef94f25ecb625, type: 3}
    selected: 1
  paintType: 0
  brushSize: 3.16
  minBrushSize: 0.1
  maxBrushSize: 20
  paintDeltaDistance: 3
  maxPaintDeltaDistance: 3
  minPaintDeltaDistance: 0.1
  prefabsPerStroke: 1
  maxprefabsPerStroke: 20
  minprefabsPerStroke: 1
  spawnHeight: 10
  addRigidbodyToPaintedPrefab: 1
  physicsIterations: 100
  checkLayer: 0
  checkTag: 0
  checkSlope: 1
  ignorePaintedPrefabs: 0
  ignoreTriggers: 1
  chainPivotAxis: 0
  chainDirection: 0
  requiredTagMask: 0
  requiredLayerMask: 0
  minRequiredSlope: 0
  maxRequiredSlope: 45.929203
  prefabOriginOffset: {x: 0, y: -0.005, z: 0}
  prefabRotationOffset: {x: 0, y: 0, z: 0}
  draggingAction: 0
  rotationAxis: 0
  rotationSensitivity: 10
  parentingStyle: 2
  parent: {fileID: 0}
  rotateToMatchSurface: 1
  rotateSurfaceDirection: 0
  randomizeRotation: 1
  minXRotation: 0
  maxXRotation: 0
  minYRotation: 0
  maxYRotation: 180
  minZRotation: 0
  maxZRotation: 0
  scaleType: 1
  scaleApplicationType: 1
  minScale: 0.4
  maxScale: 1.4
  minXScale: 1
  maxXScale: 1
  minYScale: 1
  maxYScale: 1
  minZScale: 1
  maxZScale: 1
  parentList: []
  eraseBrushSize: 5.45
  minEraseBrushSize: 0.1
  maxEraseBrushSize: 20
  eraseType: 1
  checkLayerForErase: 0
  checkTagForErase: 0
  checkSlopeForErase: 0
  mustBeSelectedInBrush: 1
  requiredTagMaskForErase: 0
  requiredLayerMaskForErase: 0
  minRequiredSlopeForErase: 0
  maxRequiredSlopeForErase: 0
  eraseDetection: 1
  paintBrushHotKey: 112
  paintBrushHoldKey: 0
  removeBrushHotKey: 306
  removeBrushHoldKey: 1
  disableBrushHotKey: 105
  disableBrushHoldKey: 1
