%YAML 1.1
%TAG !u! tag:unity3d.com,2011:
--- !u!1001 &7633670529513191784
PrefabInstance:
  m_ObjectHideFlags: 0
  serializedVersion: 2
  m_Modification:
    m_TransformParent: {fileID: 0}
    m_Modifications:
    - target: {fileID: -8679921383154817045, guid: 5943d6e4c64df5943b9b79f093f2265a, type: 3}
      propertyPath: m_RootOrder
      value: 0
      objectReference: {fileID: 0}
    - target: {fileID: -8679921383154817045, guid: 5943d6e4c64df5943b9b79f093f2265a, type: 3}
      propertyPath: m_LocalPosition.x
      value: 0
      objectReference: {fileID: 0}
    - target: {fileID: -8679921383154817045, guid: 5943d6e4c64df5943b9b79f093f2265a, type: 3}
      propertyPath: m_LocalPosition.y
      value: 0
      objectReference: {fileID: 0}
    - target: {fileID: -8679921383154817045, guid: 5943d6e4c64df5943b9b79f093f2265a, type: 3}
      propertyPath: m_LocalPosition.z
      value: 0
      objectReference: {fileID: 0}
    - target: {fileID: -8679921383154817045, guid: 5943d6e4c64df5943b9b79f093f2265a, type: 3}
      propertyPath: m_LocalRotation.w
      value: 0.9999977
      objectReference: {fileID: 0}
    - target: {fileID: -8679921383154817045, guid: 5943d6e4c64df5943b9b79f093f2265a, type: 3}
      propertyPath: m_LocalRotation.x
      value: 0
      objectReference: {fileID: 0}
    - target: {fileID: -8679921383154817045, guid: 5943d6e4c64df5943b9b79f093f2265a, type: 3}
      propertyPath: m_LocalRotation.y
      value: -0.002168602
      objectReference: {fileID: 0}
    - target: {fileID: -8679921383154817045, guid: 5943d6e4c64df5943b9b79f093f2265a, type: 3}
      propertyPath: m_LocalRotation.z
      value: -0
      objectReference: {fileID: 0}
    - target: {fileID: -8679921383154817045, guid: 5943d6e4c64df5943b9b79f093f2265a, type: 3}
      propertyPath: m_LocalEulerAnglesHint.x
      value: 0
      objectReference: {fileID: 0}
    - target: {fileID: -8679921383154817045, guid: 5943d6e4c64df5943b9b79f093f2265a, type: 3}
      propertyPath: m_LocalEulerAnglesHint.y
      value: 0
      objectReference: {fileID: 0}
    - target: {fileID: -8679921383154817045, guid: 5943d6e4c64df5943b9b79f093f2265a, type: 3}
      propertyPath: m_LocalEulerAnglesHint.z
      value: 0
      objectReference: {fileID: 0}
    - target: {fileID: -7511558181221131132, guid: 5943d6e4c64df5943b9b79f093f2265a, type: 3}
      propertyPath: m_Materials.Array.data[0]
      value: 
      objectReference: {fileID: 2100000, guid: cf74ab08f5820a74f921f9ba2bc52bbc, type: 2}
    - target: {fileID: 919132149155446097, guid: 5943d6e4c64df5943b9b79f093f2265a, type: 3}
      propertyPath: m_Name
      value: Key_Basic
      objectReference: {fileID: 0}
    m_RemovedComponents: []
  m_SourcePrefab: {fileID: 100100000, guid: 5943d6e4c64df5943b9b79f093f2265a, type: 3}
